<?xml version="1.0" encoding="utf-8"?>
<!DOCTYPE eagle SYSTEM "eagle.dtd">
<eagle version="7.1.0">
<drawing>
<settings>
<setting alwaysvectorfont="no"/>
<setting verticaltext="up"/>
</settings>
<grid distance="0.127" unitdist="mm" unit="mm" style="lines" multiple="1" display="yes" altdistance="0.025" altunitdist="inch" altunit="inch"/>
<layers>
<layer number="1" name="Top" color="4" fill="1" visible="yes" active="yes"/>
<layer number="2" name="Route2" color="1" fill="3" visible="no" active="no"/>
<layer number="3" name="Route3" color="4" fill="3" visible="no" active="no"/>
<layer number="4" name="Route4" color="1" fill="4" visible="no" active="no"/>
<layer number="5" name="Route5" color="4" fill="4" visible="no" active="no"/>
<layer number="6" name="Route6" color="1" fill="8" visible="no" active="no"/>
<layer number="7" name="Route7" color="4" fill="8" visible="no" active="no"/>
<layer number="8" name="Route8" color="1" fill="2" visible="no" active="no"/>
<layer number="9" name="Route9" color="4" fill="2" visible="no" active="no"/>
<layer number="10" name="Route10" color="1" fill="7" visible="no" active="no"/>
<layer number="11" name="Route11" color="4" fill="7" visible="no" active="no"/>
<layer number="12" name="Route12" color="1" fill="5" visible="no" active="no"/>
<layer number="13" name="Route13" color="4" fill="5" visible="no" active="no"/>
<layer number="14" name="Route14" color="1" fill="6" visible="no" active="no"/>
<layer number="15" name="Route15" color="4" fill="6" visible="no" active="no"/>
<layer number="16" name="Bottom" color="1" fill="1" visible="yes" active="yes"/>
<layer number="17" name="Pads" color="2" fill="1" visible="yes" active="yes"/>
<layer number="18" name="Vias" color="2" fill="1" visible="yes" active="yes"/>
<layer number="19" name="Unrouted" color="6" fill="1" visible="yes" active="yes"/>
<layer number="20" name="Dimension" color="15" fill="1" visible="yes" active="yes"/>
<layer number="21" name="tPlace" color="7" fill="1" visible="yes" active="yes"/>
<layer number="22" name="bPlace" color="7" fill="1" visible="yes" active="yes"/>
<layer number="23" name="tOrigins" color="15" fill="1" visible="yes" active="yes"/>
<layer number="24" name="bOrigins" color="15" fill="1" visible="yes" active="yes"/>
<layer number="25" name="tNames" color="7" fill="1" visible="yes" active="yes"/>
<layer number="26" name="bNames" color="7" fill="1" visible="yes" active="yes"/>
<layer number="27" name="tValues" color="7" fill="1" visible="yes" active="yes"/>
<layer number="28" name="bValues" color="7" fill="1" visible="yes" active="yes"/>
<layer number="29" name="tStop" color="7" fill="3" visible="no" active="yes"/>
<layer number="30" name="bStop" color="7" fill="6" visible="no" active="yes"/>
<layer number="31" name="tCream" color="7" fill="4" visible="no" active="yes"/>
<layer number="32" name="bCream" color="7" fill="5" visible="no" active="yes"/>
<layer number="33" name="tFinish" color="6" fill="3" visible="no" active="yes"/>
<layer number="34" name="bFinish" color="6" fill="6" visible="no" active="yes"/>
<layer number="35" name="tGlue" color="7" fill="4" visible="no" active="yes"/>
<layer number="36" name="bGlue" color="7" fill="5" visible="no" active="yes"/>
<layer number="37" name="tTest" color="7" fill="1" visible="no" active="yes"/>
<layer number="38" name="bTest" color="7" fill="1" visible="no" active="yes"/>
<layer number="39" name="tKeepout" color="4" fill="11" visible="yes" active="yes"/>
<layer number="40" name="bKeepout" color="1" fill="11" visible="yes" active="yes"/>
<layer number="41" name="tRestrict" color="4" fill="10" visible="yes" active="yes"/>
<layer number="42" name="bRestrict" color="1" fill="10" visible="yes" active="yes"/>
<layer number="43" name="vRestrict" color="2" fill="10" visible="yes" active="yes"/>
<layer number="44" name="Drills" color="7" fill="1" visible="no" active="yes"/>
<layer number="45" name="Holes" color="7" fill="1" visible="no" active="yes"/>
<layer number="46" name="Milling" color="3" fill="1" visible="no" active="yes"/>
<layer number="47" name="Measures" color="7" fill="1" visible="no" active="yes"/>
<layer number="48" name="Document" color="7" fill="1" visible="yes" active="yes"/>
<layer number="49" name="Reference" color="7" fill="1" visible="yes" active="yes"/>
<layer number="51" name="tDocu" color="7" fill="1" visible="yes" active="yes"/>
<layer number="52" name="bDocu" color="7" fill="1" visible="yes" active="yes"/>
<layer number="90" name="Modules" color="5" fill="1" visible="no" active="no"/>
<layer number="91" name="Nets" color="2" fill="1" visible="no" active="no"/>
<layer number="92" name="Busses" color="1" fill="1" visible="no" active="no"/>
<layer number="93" name="Pins" color="2" fill="1" visible="no" active="no"/>
<layer number="94" name="Symbols" color="4" fill="1" visible="no" active="no"/>
<layer number="95" name="Names" color="7" fill="1" visible="no" active="no"/>
<layer number="96" name="Values" color="7" fill="1" visible="no" active="no"/>
<layer number="97" name="Info" color="7" fill="1" visible="no" active="no"/>
<layer number="98" name="Guide" color="6" fill="1" visible="no" active="no"/>
</layers>
<board>
<plain>
<wire x1="0" y1="0" x2="160" y2="0" width="0" layer="20"/>
<wire x1="160" y1="0" x2="160" y2="100" width="0" layer="20"/>
<wire x1="160" y1="100" x2="0" y2="100" width="0" layer="20"/>
<wire x1="0" y1="100" x2="0" y2="0" width="0" layer="20"/>
<dimension x1="33.02" y1="40.64" x2="53.086" y2="40.513" x3="43.053" y3="75.438" textsize="1.778" layer="20" dtype="horizontal"/>
<dimension x1="33.02" y1="40.64" x2="33.02" y2="53.34" x3="69.088" y3="46.99" textsize="1.778" layer="20" dtype="vertical"/>
<text x="51.943" y="55.753" size="1.778" layer="16" rot="MR270">Sheild serial</text>
</plain>
<libraries>
<library name="40xx">
<description>&lt;b&gt;CMOS Logic Devices, 4000 Series&lt;/b&gt;&lt;p&gt;
Based on the following sources:
&lt;ul&gt;
&lt;li&gt;Motorola &lt;i&gt;CMOS LOGIC DATA&lt;/i&gt;; book, 02/88, DL131 REV 1
&lt;li&gt;http://www.elexp.com
&lt;li&gt;http://www.intersil.com
&lt;li&gt;http://www.ls3c.com.tw/product/1/COMOS.html
&lt;/ul&gt;
&lt;author&gt;Created by librarian@cadsoft.de&lt;/author&gt;</description>
<packages>
<package name="SO16">
<description>&lt;b&gt;Small Outline package&lt;/b&gt; 150 mil</description>
<wire x1="4.699" y1="1.9558" x2="-4.699" y2="1.9558" width="0.1524" layer="21"/>
<wire x1="4.699" y1="-1.9558" x2="5.08" y2="-1.5748" width="0.1524" layer="21" curve="90"/>
<wire x1="-5.08" y1="1.5748" x2="-4.699" y2="1.9558" width="0.1524" layer="21" curve="-90"/>
<wire x1="4.699" y1="1.9558" x2="5.08" y2="1.5748" width="0.1524" layer="21" curve="-90"/>
<wire x1="-5.08" y1="-1.5748" x2="-4.699" y2="-1.9558" width="0.1524" layer="21" curve="90"/>
<wire x1="-4.699" y1="-1.9558" x2="4.699" y2="-1.9558" width="0.1524" layer="21"/>
<wire x1="5.08" y1="-1.5748" x2="5.08" y2="1.5748" width="0.1524" layer="21"/>
<wire x1="-5.08" y1="1.5748" x2="-5.08" y2="0.508" width="0.1524" layer="21"/>
<wire x1="-5.08" y1="0.508" x2="-5.08" y2="-0.508" width="0.1524" layer="21"/>
<wire x1="-5.08" y1="-0.508" x2="-5.08" y2="-1.5748" width="0.1524" layer="21"/>
<wire x1="-5.08" y1="0.508" x2="-5.08" y2="-0.508" width="0.1524" layer="21" curve="-180"/>
<wire x1="-5.08" y1="-1.6002" x2="5.08" y2="-1.6002" width="0.0508" layer="21"/>
<smd name="1" x="-4.445" y="-3.0734" dx="0.6604" dy="2.032" layer="1"/>
<smd name="16" x="-4.445" y="3.0734" dx="0.6604" dy="2.032" layer="1"/>
<smd name="2" x="-3.175" y="-3.0734" dx="0.6604" dy="2.032" layer="1"/>
<smd name="3" x="-1.905" y="-3.0734" dx="0.6604" dy="2.032" layer="1"/>
<smd name="15" x="-3.175" y="3.0734" dx="0.6604" dy="2.032" layer="1"/>
<smd name="14" x="-1.905" y="3.0734" dx="0.6604" dy="2.032" layer="1"/>
<smd name="4" x="-0.635" y="-3.0734" dx="0.6604" dy="2.032" layer="1"/>
<smd name="13" x="-0.635" y="3.0734" dx="0.6604" dy="2.032" layer="1"/>
<smd name="5" x="0.635" y="-3.0734" dx="0.6604" dy="2.032" layer="1"/>
<smd name="12" x="0.635" y="3.0734" dx="0.6604" dy="2.032" layer="1"/>
<smd name="6" x="1.905" y="-3.0734" dx="0.6604" dy="2.032" layer="1"/>
<smd name="7" x="3.175" y="-3.0734" dx="0.6604" dy="2.032" layer="1"/>
<smd name="11" x="1.905" y="3.0734" dx="0.6604" dy="2.032" layer="1"/>
<smd name="10" x="3.175" y="3.0734" dx="0.6604" dy="2.032" layer="1"/>
<smd name="8" x="4.445" y="-3.0734" dx="0.6604" dy="2.032" layer="1"/>
<smd name="9" x="4.445" y="3.0734" dx="0.6604" dy="2.032" layer="1"/>
<text x="-4.064" y="-0.635" size="1.27" layer="27" ratio="10">&gt;VALUE</text>
<text x="-5.461" y="-2.032" size="1.27" layer="25" ratio="10" rot="R90">&gt;NAME</text>
<rectangle x1="-0.889" y1="1.9558" x2="-0.381" y2="3.0988" layer="51"/>
<rectangle x1="-4.699" y1="-3.0988" x2="-4.191" y2="-1.9558" layer="51"/>
<rectangle x1="-3.429" y1="-3.0988" x2="-2.921" y2="-1.9558" layer="51"/>
<rectangle x1="-2.159" y1="-3.0734" x2="-1.651" y2="-1.9304" layer="51"/>
<rectangle x1="-0.889" y1="-3.0988" x2="-0.381" y2="-1.9558" layer="51"/>
<rectangle x1="-2.159" y1="1.9558" x2="-1.651" y2="3.0988" layer="51"/>
<rectangle x1="-3.429" y1="1.9558" x2="-2.921" y2="3.0988" layer="51"/>
<rectangle x1="-4.699" y1="1.9558" x2="-4.191" y2="3.0988" layer="51"/>
<rectangle x1="0.381" y1="-3.0988" x2="0.889" y2="-1.9558" layer="51"/>
<rectangle x1="1.651" y1="-3.0988" x2="2.159" y2="-1.9558" layer="51"/>
<rectangle x1="2.921" y1="-3.0988" x2="3.429" y2="-1.9558" layer="51"/>
<rectangle x1="4.191" y1="-3.0988" x2="4.699" y2="-1.9558" layer="51"/>
<rectangle x1="0.381" y1="1.9558" x2="0.889" y2="3.0988" layer="51"/>
<rectangle x1="1.651" y1="1.9558" x2="2.159" y2="3.0988" layer="51"/>
<rectangle x1="2.921" y1="1.9558" x2="3.429" y2="3.0988" layer="51"/>
<rectangle x1="4.191" y1="1.9558" x2="4.699" y2="3.0988" layer="51"/>
</package>
</packages>
</library>
<library name="pinhead">
<description>&lt;b&gt;Pin Header Connectors&lt;/b&gt;&lt;p&gt;
&lt;author&gt;Created by librarian@cadsoft.de&lt;/author&gt;</description>
<packages>
<package name="1X06">
<description>&lt;b&gt;PIN HEADER&lt;/b&gt;</description>
<wire x1="0.635" y1="1.27" x2="1.905" y2="1.27" width="0.1524" layer="21"/>
<wire x1="1.905" y1="1.27" x2="2.54" y2="0.635" width="0.1524" layer="21"/>
<wire x1="2.54" y1="0.635" x2="2.54" y2="-0.635" width="0.1524" layer="21"/>
<wire x1="2.54" y1="-0.635" x2="1.905" y2="-1.27" width="0.1524" layer="21"/>
<wire x1="2.54" y1="0.635" x2="3.175" y2="1.27" width="0.1524" layer="21"/>
<wire x1="3.175" y1="1.27" x2="4.445" y2="1.27" width="0.1524" layer="21"/>
<wire x1="4.445" y1="1.27" x2="5.08" y2="0.635" width="0.1524" layer="21"/>
<wire x1="5.08" y1="0.635" x2="5.08" y2="-0.635" width="0.1524" layer="21"/>
<wire x1="5.08" y1="-0.635" x2="4.445" y2="-1.27" width="0.1524" layer="21"/>
<wire x1="4.445" y1="-1.27" x2="3.175" y2="-1.27" width="0.1524" layer="21"/>
<wire x1="3.175" y1="-1.27" x2="2.54" y2="-0.635" width="0.1524" layer="21"/>
<wire x1="-2.54" y1="0.635" x2="-1.905" y2="1.27" width="0.1524" layer="21"/>
<wire x1="-1.905" y1="1.27" x2="-0.635" y2="1.27" width="0.1524" layer="21"/>
<wire x1="-0.635" y1="1.27" x2="0" y2="0.635" width="0.1524" layer="21"/>
<wire x1="0" y1="0.635" x2="0" y2="-0.635" width="0.1524" layer="21"/>
<wire x1="0" y1="-0.635" x2="-0.635" y2="-1.27" width="0.1524" layer="21"/>
<wire x1="-0.635" y1="-1.27" x2="-1.905" y2="-1.27" width="0.1524" layer="21"/>
<wire x1="-1.905" y1="-1.27" x2="-2.54" y2="-0.635" width="0.1524" layer="21"/>
<wire x1="0.635" y1="1.27" x2="0" y2="0.635" width="0.1524" layer="21"/>
<wire x1="0" y1="-0.635" x2="0.635" y2="-1.27" width="0.1524" layer="21"/>
<wire x1="1.905" y1="-1.27" x2="0.635" y2="-1.27" width="0.1524" layer="21"/>
<wire x1="-6.985" y1="1.27" x2="-5.715" y2="1.27" width="0.1524" layer="21"/>
<wire x1="-5.715" y1="1.27" x2="-5.08" y2="0.635" width="0.1524" layer="21"/>
<wire x1="-5.08" y1="0.635" x2="-5.08" y2="-0.635" width="0.1524" layer="21"/>
<wire x1="-5.08" y1="-0.635" x2="-5.715" y2="-1.27" width="0.1524" layer="21"/>
<wire x1="-5.08" y1="0.635" x2="-4.445" y2="1.27" width="0.1524" layer="21"/>
<wire x1="-4.445" y1="1.27" x2="-3.175" y2="1.27" width="0.1524" layer="21"/>
<wire x1="-3.175" y1="1.27" x2="-2.54" y2="0.635" width="0.1524" layer="21"/>
<wire x1="-2.54" y1="0.635" x2="-2.54" y2="-0.635" width="0.1524" layer="21"/>
<wire x1="-2.54" y1="-0.635" x2="-3.175" y2="-1.27" width="0.1524" layer="21"/>
<wire x1="-3.175" y1="-1.27" x2="-4.445" y2="-1.27" width="0.1524" layer="21"/>
<wire x1="-4.445" y1="-1.27" x2="-5.08" y2="-0.635" width="0.1524" layer="21"/>
<wire x1="-7.62" y1="0.635" x2="-7.62" y2="-0.635" width="0.1524" layer="21"/>
<wire x1="-6.985" y1="1.27" x2="-7.62" y2="0.635" width="0.1524" layer="21"/>
<wire x1="-7.62" y1="-0.635" x2="-6.985" y2="-1.27" width="0.1524" layer="21"/>
<wire x1="-5.715" y1="-1.27" x2="-6.985" y2="-1.27" width="0.1524" layer="21"/>
<wire x1="5.715" y1="1.27" x2="6.985" y2="1.27" width="0.1524" layer="21"/>
<wire x1="6.985" y1="1.27" x2="7.62" y2="0.635" width="0.1524" layer="21"/>
<wire x1="7.62" y1="0.635" x2="7.62" y2="-0.635" width="0.1524" layer="21"/>
<wire x1="7.62" y1="-0.635" x2="6.985" y2="-1.27" width="0.1524" layer="21"/>
<wire x1="5.715" y1="1.27" x2="5.08" y2="0.635" width="0.1524" layer="21"/>
<wire x1="5.08" y1="-0.635" x2="5.715" y2="-1.27" width="0.1524" layer="21"/>
<wire x1="6.985" y1="-1.27" x2="5.715" y2="-1.27" width="0.1524" layer="21"/>
<pad name="1" x="-6.35" y="0" drill="0.7" diameter="1.778" rot="R90"/>
<pad name="2" x="-3.81" y="0" drill="0.7" diameter="1.778" rot="R90"/>
<pad name="3" x="-1.27" y="0" drill="0.7" diameter="1.778" rot="R90"/>
<pad name="4" x="1.27" y="0" drill="0.7" diameter="1.778" rot="R90"/>
<pad name="5" x="3.81" y="0" drill="0.7" diameter="1.778" rot="R90"/>
<pad name="6" x="6.35" y="0" drill="0.7" diameter="1.778" rot="R90"/>
<text x="-7.6962" y="1.8288" size="1.27" layer="25" ratio="10">&gt;NAME</text>
<text x="-7.62" y="-3.175" size="1.27" layer="27">&gt;VALUE</text>
<rectangle x1="3.556" y1="-0.254" x2="4.064" y2="0.254" layer="51"/>
<rectangle x1="1.016" y1="-0.254" x2="1.524" y2="0.254" layer="51"/>
<rectangle x1="-1.524" y1="-0.254" x2="-1.016" y2="0.254" layer="51"/>
<rectangle x1="-4.064" y1="-0.254" x2="-3.556" y2="0.254" layer="51"/>
<rectangle x1="-6.604" y1="-0.254" x2="-6.096" y2="0.254" layer="51"/>
<rectangle x1="6.096" y1="-0.254" x2="6.604" y2="0.254" layer="51"/>
</package>
<package name="1X02">
<description>&lt;b&gt;PIN HEADER&lt;/b&gt;</description>
<wire x1="-1.905" y1="1.27" x2="-0.635" y2="1.27" width="0.1524" layer="21"/>
<wire x1="-0.635" y1="1.27" x2="0" y2="0.635" width="0.1524" layer="21"/>
<wire x1="0" y1="0.635" x2="0" y2="-0.635" width="0.1524" layer="21"/>
<wire x1="0" y1="-0.635" x2="-0.635" y2="-1.27" width="0.1524" layer="21"/>
<wire x1="-2.54" y1="0.635" x2="-2.54" y2="-0.635" width="0.1524" layer="21"/>
<wire x1="-1.905" y1="1.27" x2="-2.54" y2="0.635" width="0.1524" layer="21"/>
<wire x1="-2.54" y1="-0.635" x2="-1.905" y2="-1.27" width="0.1524" layer="21"/>
<wire x1="-0.635" y1="-1.27" x2="-1.905" y2="-1.27" width="0.1524" layer="21"/>
<wire x1="0" y1="0.635" x2="0.635" y2="1.27" width="0.1524" layer="21"/>
<wire x1="0.635" y1="1.27" x2="1.905" y2="1.27" width="0.1524" layer="21"/>
<wire x1="1.905" y1="1.27" x2="2.54" y2="0.635" width="0.1524" layer="21"/>
<wire x1="2.54" y1="0.635" x2="2.54" y2="-0.635" width="0.1524" layer="21"/>
<wire x1="2.54" y1="-0.635" x2="1.905" y2="-1.27" width="0.1524" layer="21"/>
<wire x1="1.905" y1="-1.27" x2="0.635" y2="-1.27" width="0.1524" layer="21"/>
<wire x1="0.635" y1="-1.27" x2="0" y2="-0.635" width="0.1524" layer="21"/>
<pad name="1" x="-1.27" y="0" drill="0.9" diameter="1.778" shape="octagon" rot="R90"/>
<pad name="2" x="1.27" y="0" drill="0.9" diameter="1.778" shape="octagon" rot="R90"/>
<text x="-2.6162" y="1.8288" size="1.27" layer="25" ratio="10">&gt;NAME</text>
<text x="-2.54" y="-3.175" size="1.27" layer="27">&gt;VALUE</text>
<rectangle x1="-1.524" y1="-0.254" x2="-1.016" y2="0.254" layer="51"/>
<rectangle x1="1.016" y1="-0.254" x2="1.524" y2="0.254" layer="51"/>
</package>
</packages>
</library>
<library name="rcl">
<description>&lt;b&gt;Resistors, Capacitors, Inductors&lt;/b&gt;&lt;p&gt;
Based on the previous libraries:
&lt;ul&gt;
&lt;li&gt;r.lbr
&lt;li&gt;cap.lbr 
&lt;li&gt;cap-fe.lbr
&lt;li&gt;captant.lbr
&lt;li&gt;polcap.lbr
&lt;li&gt;ipc-smd.lbr
&lt;/ul&gt;
All SMD packages are defined according to the IPC specifications and  CECC&lt;p&gt;
&lt;author&gt;Created by librarian@cadsoft.de&lt;/author&gt;&lt;p&gt;
&lt;p&gt;
for Electrolyt Capacitors see also :&lt;p&gt;
www.bccomponents.com &lt;p&gt;
www.panasonic.com&lt;p&gt;
www.kemet.com&lt;p&gt;
http://www.secc.co.jp/pdf/os_e/2004/e_os_all.pdf &lt;b&gt;(SANYO)&lt;/b&gt;
&lt;p&gt;
for trimmer refence see : &lt;u&gt;www.electrospec-inc.com/cross_references/trimpotcrossref.asp&lt;/u&gt;&lt;p&gt;

&lt;table border=0 cellspacing=0 cellpadding=0 width="100%" cellpaddding=0&gt;
&lt;tr valign="top"&gt;

&lt;! &lt;td width="10"&gt;&amp;nbsp;&lt;/td&gt;
&lt;td width="90%"&gt;

&lt;b&gt;&lt;font color="#0000FF" size="4"&gt;TRIM-POT CROSS REFERENCE&lt;/font&gt;&lt;/b&gt;
&lt;P&gt;
&lt;TABLE BORDER=0 CELLSPACING=1 CELLPADDING=2&gt;
  &lt;TR&gt;
    &lt;TD COLSPAN=8&gt;
      &lt;FONT SIZE=3 FACE=ARIAL&gt;&lt;B&gt;RECTANGULAR MULTI-TURN&lt;/B&gt;&lt;/FONT&gt;
    &lt;/TD&gt;
  &lt;/TR&gt;
  &lt;TR&gt;
    &lt;TD ALIGN=CENTER&gt;
      &lt;B&gt;
      &lt;FONT SIZE=3 FACE=ARIAL color="#FF0000"&gt;BOURNS&lt;/FONT&gt;
      &lt;/B&gt;
    &lt;/TD&gt;
    &lt;TD ALIGN=CENTER&gt;
      &lt;B&gt;
      &lt;FONT SIZE=3 FACE=ARIAL color="#FF0000"&gt;BI&amp;nbsp;TECH&lt;/FONT&gt;
      &lt;/B&gt;
    &lt;/TD&gt;
    &lt;TD ALIGN=CENTER&gt;
      &lt;B&gt;
      &lt;FONT SIZE=3 FACE=ARIAL color="#FF0000"&gt;DALE-VISHAY&lt;/FONT&gt;
      &lt;/B&gt;
    &lt;/TD&gt;
    &lt;TD ALIGN=CENTER&gt;
      &lt;B&gt;
      &lt;FONT SIZE=3 FACE=ARIAL color="#FF0000"&gt;PHILIPS/MEPCO&lt;/FONT&gt;
      &lt;/B&gt;
    &lt;/TD&gt;
    &lt;TD ALIGN=CENTER&gt;
      &lt;B&gt;
      &lt;FONT SIZE=3 FACE=ARIAL color="#FF0000"&gt;MURATA&lt;/FONT&gt;
      &lt;/B&gt;
    &lt;/TD&gt;
    &lt;TD ALIGN=CENTER&gt;
      &lt;B&gt;
      &lt;FONT SIZE=3 FACE=ARIAL color="#FF0000"&gt;PANASONIC&lt;/FONT&gt;
      &lt;/B&gt;
    &lt;/TD&gt;
    &lt;TD ALIGN=CENTER&gt;
      &lt;B&gt;
      &lt;FONT SIZE=3 FACE=ARIAL color="#FF0000"&gt;SPECTROL&lt;/FONT&gt;
      &lt;/B&gt;
    &lt;/TD&gt;
    &lt;TD ALIGN=CENTER&gt;
      &lt;B&gt;
      &lt;FONT SIZE=3 FACE=ARIAL color="#FF0000"&gt;MILSPEC&lt;/FONT&gt;
      &lt;/B&gt;
    &lt;/TD&gt;&lt;TD&gt;&amp;nbsp;&lt;/TD&gt;
  &lt;/TR&gt;
  &lt;TR&gt;
    &lt;TD BGCOLOR="#cccccc" ALIGN=CENTER&gt;&lt;FONT FACE=ARIAL SIZE=3 &gt;
      3005P&lt;BR&gt;
      3006P&lt;BR&gt;
      3006W&lt;BR&gt;
      3006Y&lt;BR&gt;
      3009P&lt;BR&gt;
      3009W&lt;BR&gt;
      3009Y&lt;BR&gt;
      3057J&lt;BR&gt;
      3057L&lt;BR&gt;
      3057P&lt;BR&gt;
      3057Y&lt;BR&gt;
      3059J&lt;BR&gt;
      3059L&lt;BR&gt;
      3059P&lt;BR&gt;
      3059Y&lt;BR&gt;&lt;/FONT&gt;
    &lt;/TD&gt;
    &lt;TD BGCOLOR="#cccccc" ALIGN=CENTER&gt;&lt;FONT FACE=ARIAL SIZE=3&gt;
      -&lt;BR&gt;
      89P&lt;BR&gt;
      89W&lt;BR&gt;
      89X&lt;BR&gt;
      89PH&lt;BR&gt;
      76P&lt;BR&gt;
      89XH&lt;BR&gt;
      78SLT&lt;BR&gt;
      78L&amp;nbsp;ALT&lt;BR&gt;
      56P&amp;nbsp;ALT&lt;BR&gt;
      78P&amp;nbsp;ALT&lt;BR&gt;
      T8S&lt;BR&gt;
      78L&lt;BR&gt;
      56P&lt;BR&gt;
      78P&lt;BR&gt;&lt;/FONT&gt;
    &lt;/TD&gt;
    &lt;TD BGCOLOR="#cccccc" ALIGN=CENTER&gt;&lt;FONT FACE=ARIAL SIZE=3&gt;
      -&lt;BR&gt;
      T18/784&lt;BR&gt;
      783&lt;BR&gt;
      781&lt;BR&gt;
      -&lt;BR&gt;
      -&lt;BR&gt;
      -&lt;BR&gt;
      2199&lt;BR&gt;
      1697/1897&lt;BR&gt;
      1680/1880&lt;BR&gt;
      2187&lt;BR&gt;
      -&lt;BR&gt;
      -&lt;BR&gt;
      -&lt;BR&gt;
      -&lt;BR&gt;&lt;/FONT&gt;
    &lt;/TD&gt;
    &lt;TD BGCOLOR="#cccccc" ALIGN=CENTER&gt;&lt;FONT FACE=ARIAL SIZE=3&gt;
      -&lt;BR&gt;
      8035EKP/CT20/RJ-20P&lt;BR&gt;
      -&lt;BR&gt;
      RJ-20X&lt;BR&gt;
      -&lt;BR&gt;
      -&lt;BR&gt;
      -&lt;BR&gt;
      1211L&lt;BR&gt;
      8012EKQ&amp;nbsp;ALT&lt;BR&gt;
      8012EKR&amp;nbsp;ALT&lt;BR&gt;
      1211P&lt;BR&gt;
      8012EKJ&lt;BR&gt;
      8012EKL&lt;BR&gt;
      8012EKQ&lt;BR&gt;
      8012EKR&lt;BR&gt;&lt;/FONT&gt;
    &lt;/TD&gt;
    &lt;TD BGCOLOR="#cccccc" ALIGN=CENTER&gt;&lt;FONT FACE=ARIAL SIZE=3&gt;
      -&lt;BR&gt;
      2101P&lt;BR&gt;
      2101W&lt;BR&gt;
      2101Y&lt;BR&gt;
      -&lt;BR&gt;
      -&lt;BR&gt;
      -&lt;BR&gt;
      -&lt;BR&gt;
      -&lt;BR&gt;
      -&lt;BR&gt;
      -&lt;BR&gt;
      -&lt;BR&gt;
      2102L&lt;BR&gt;
      2102S&lt;BR&gt;
      2102Y&lt;BR&gt;&lt;/FONT&gt;
    &lt;/TD&gt;
    &lt;TD BGCOLOR="#cccccc" ALIGN=CENTER&gt;&lt;FONT FACE=ARIAL SIZE=3&gt;
      -&lt;BR&gt;
      EVMCOG&lt;BR&gt;
      -&lt;BR&gt;
      -&lt;BR&gt;
      -&lt;BR&gt;
      -&lt;BR&gt;
      -&lt;BR&gt;
      -&lt;BR&gt;
      -&lt;BR&gt;
      -&lt;BR&gt;
      -&lt;BR&gt;
      -&lt;BR&gt;
      -&lt;BR&gt;
      -&lt;BR&gt;
      -&lt;BR&gt;&lt;/FONT&gt;
    &lt;/TD&gt;
    &lt;TD BGCOLOR="#cccccc" ALIGN=CENTER&gt;&lt;FONT FACE=ARIAL SIZE=3&gt;
      -&lt;BR&gt;
      43P&lt;BR&gt;
      43W&lt;BR&gt;
      43Y&lt;BR&gt;
      -&lt;BR&gt;
      -&lt;BR&gt;
      -&lt;BR&gt;
      -&lt;BR&gt;
      40L&lt;BR&gt;
      40P&lt;BR&gt;
      40Y&lt;BR&gt;
      70Y-T602&lt;BR&gt;
      70L&lt;BR&gt;
      70P&lt;BR&gt;
      70Y&lt;BR&gt;&lt;/FONT&gt;
    &lt;/TD&gt;
    &lt;TD BGCOLOR="#cccccc" ALIGN=CENTER&gt;&lt;FONT FACE=ARIAL SIZE=3&gt;
      -&lt;BR&gt;
      -&lt;BR&gt;
      -&lt;BR&gt;
      -&lt;BR&gt;
      -&lt;BR&gt;
      -&lt;BR&gt;
      -&lt;BR&gt;
      -&lt;BR&gt;
      RT/RTR12&lt;BR&gt;
      RT/RTR12&lt;BR&gt;
      RT/RTR12&lt;BR&gt;
      -&lt;BR&gt;
      RJ/RJR12&lt;BR&gt;
      RJ/RJR12&lt;BR&gt;
      RJ/RJR12&lt;BR&gt;&lt;/FONT&gt;
    &lt;/TD&gt;
  &lt;/TR&gt;
  &lt;TR&gt;
    &lt;TD COLSPAN=8&gt;&amp;nbsp;
    &lt;/TD&gt;
  &lt;/TR&gt;
  &lt;TR&gt;
    &lt;TD COLSPAN=8&gt;
      &lt;FONT SIZE=4 FACE=ARIAL&gt;&lt;B&gt;SQUARE MULTI-TURN&lt;/B&gt;&lt;/FONT&gt;
    &lt;/TD&gt;
  &lt;/TR&gt;
  &lt;TR&gt;
   &lt;TD ALIGN=CENTER&gt;
      &lt;FONT SIZE=3 FACE=ARIAL&gt;&lt;B&gt;BOURN&lt;/B&gt;&lt;/FONT&gt;
    &lt;/TD&gt;
    &lt;TD ALIGN=CENTER&gt;
      &lt;FONT SIZE=3 FACE=ARIAL&gt;&lt;B&gt;BI&amp;nbsp;TECH&lt;/B&gt;&lt;/FONT&gt;
    &lt;/TD&gt;
    &lt;TD ALIGN=CENTER&gt;
      &lt;FONT SIZE=3 FACE=ARIAL&gt;&lt;B&gt;DALE-VISHAY&lt;/B&gt;&lt;/FONT&gt;
    &lt;/TD&gt;
    &lt;TD ALIGN=CENTER&gt;
      &lt;FONT SIZE=3 FACE=ARIAL&gt;&lt;B&gt;PHILIPS/MEPCO&lt;/B&gt;&lt;/FONT&gt;
    &lt;/TD&gt;
    &lt;TD ALIGN=CENTER&gt;
      &lt;FONT SIZE=3 FACE=ARIAL&gt;&lt;B&gt;MURATA&lt;/B&gt;&lt;/FONT&gt;
    &lt;/TD&gt;
    &lt;TD ALIGN=CENTER&gt;
      &lt;FONT SIZE=3 FACE=ARIAL&gt;&lt;B&gt;PANASONIC&lt;/B&gt;&lt;/FONT&gt;
    &lt;/TD&gt;
    &lt;TD ALIGN=CENTER&gt;
      &lt;FONT SIZE=3 FACE=ARIAL&gt;&lt;B&gt;SPECTROL&lt;/B&gt;&lt;/FONT&gt;
    &lt;/TD&gt;
    &lt;TD ALIGN=CENTER&gt;
      &lt;FONT SIZE=3 FACE=ARIAL&gt;&lt;B&gt;MILSPEC&lt;/B&gt;&lt;/FONT&gt;
    &lt;/TD&gt;
  &lt;/TR&gt;
  &lt;TR&gt;
    &lt;TD BGCOLOR="#cccccc" ALIGN=CENTER&gt;&lt;FONT FACE=ARIAL SIZE=3&gt;
      3250L&lt;BR&gt;
      3250P&lt;BR&gt;
      3250W&lt;BR&gt;
      3250X&lt;BR&gt;
      3252P&lt;BR&gt;
      3252W&lt;BR&gt;
      3252X&lt;BR&gt;
      3260P&lt;BR&gt;
      3260W&lt;BR&gt;
      3260X&lt;BR&gt;
      3262P&lt;BR&gt;
      3262W&lt;BR&gt;
      3262X&lt;BR&gt;
      3266P&lt;BR&gt;
      3266W&lt;BR&gt;
      3266X&lt;BR&gt;
      3290H&lt;BR&gt;
      3290P&lt;BR&gt;
      3290W&lt;BR&gt;
      3292P&lt;BR&gt;
      3292W&lt;BR&gt;
      3292X&lt;BR&gt;
      3296P&lt;BR&gt;
      3296W&lt;BR&gt;
      3296X&lt;BR&gt;
      3296Y&lt;BR&gt;
      3296Z&lt;BR&gt;
      3299P&lt;BR&gt;
      3299W&lt;BR&gt;
      3299X&lt;BR&gt;
      3299Y&lt;BR&gt;
      3299Z&lt;BR&gt;&lt;/FONT&gt;
    &lt;/TD&gt;
    &lt;TD BGCOLOR="#cccccc" ALIGN=CENTER&gt;&lt;FONT FACE=ARIAL SIZE=3&gt;
      -&lt;BR&gt;
      66P&amp;nbsp;ALT&lt;BR&gt;
      66W&amp;nbsp;ALT&lt;BR&gt;
      66X&amp;nbsp;ALT&lt;BR&gt;
      66P&amp;nbsp;ALT&lt;BR&gt;
      66W&amp;nbsp;ALT&lt;BR&gt;
      66X&amp;nbsp;ALT&lt;BR&gt;
      -&lt;BR&gt;
      64W&amp;nbsp;ALT&lt;BR&gt;
      -&lt;BR&gt;
      64P&amp;nbsp;ALT&lt;BR&gt;
      64W&amp;nbsp;ALT&lt;BR&gt;
      64X&amp;nbsp;ALT&lt;BR&gt;
      64P&lt;BR&gt;
      64W&lt;BR&gt;
      64X&lt;BR&gt;
      66X&amp;nbsp;ALT&lt;BR&gt;
      66P&amp;nbsp;ALT&lt;BR&gt;
      66W&amp;nbsp;ALT&lt;BR&gt;
      66P&lt;BR&gt;
      66W&lt;BR&gt;
      66X&lt;BR&gt;
      67P&lt;BR&gt;
      67W&lt;BR&gt;
      67X&lt;BR&gt;
      67Y&lt;BR&gt;
      67Z&lt;BR&gt;
      68P&lt;BR&gt;
      68W&lt;BR&gt;
      68X&lt;BR&gt;
      67Y&amp;nbsp;ALT&lt;BR&gt;
      67Z&amp;nbsp;ALT&lt;BR&gt;&lt;/FONT&gt;
    &lt;/TD&gt;
    &lt;TD BGCOLOR="#cccccc" ALIGN=CENTER&gt;&lt;FONT FACE=ARIAL SIZE=3&gt;
      5050&lt;BR&gt;
      5091&lt;BR&gt;
      5080&lt;BR&gt;
      5087&lt;BR&gt;
      -&lt;BR&gt;
      -&lt;BR&gt;
      -&lt;BR&gt;
      -&lt;BR&gt;
      -&lt;BR&gt;
      -&lt;BR&gt;
      -&lt;BR&gt;
      T63YB&lt;BR&gt;
      T63XB&lt;BR&gt;
      -&lt;BR&gt;
      -&lt;BR&gt;
      -&lt;BR&gt;
      5887&lt;BR&gt;
      5891&lt;BR&gt;
      5880&lt;BR&gt;
      -&lt;BR&gt;
      -&lt;BR&gt;
      -&lt;BR&gt;
      T93Z&lt;BR&gt;
      T93YA&lt;BR&gt;
      T93XA&lt;BR&gt;
      T93YB&lt;BR&gt;
      T93XB&lt;BR&gt;
      -&lt;BR&gt;
      -&lt;BR&gt;
      -&lt;BR&gt;
      -&lt;BR&gt;
      -&lt;BR&gt;&lt;/FONT&gt;
    &lt;/TD&gt;
    &lt;TD BGCOLOR="#cccccc" ALIGN=CENTER&gt;&lt;FONT FACE=ARIAL SIZE=3&gt;
      -&lt;BR&gt;
      -&lt;BR&gt;
      -&lt;BR&gt;
      -&lt;BR&gt;
      -&lt;BR&gt;
      -&lt;BR&gt;
      -&lt;BR&gt;
      -&lt;BR&gt;
      -&lt;BR&gt;
      -&lt;BR&gt;
      8026EKP&lt;BR&gt;
      8026EKW&lt;BR&gt;
      8026EKM&lt;BR&gt;
      8026EKP&lt;BR&gt;
      8026EKB&lt;BR&gt;
      8026EKM&lt;BR&gt;
      1309X&lt;BR&gt;
      1309P&lt;BR&gt;
      1309W&lt;BR&gt;
      8024EKP&lt;BR&gt;
      8024EKW&lt;BR&gt;
      8024EKN&lt;BR&gt;
      RJ-9P/CT9P&lt;BR&gt;
      RJ-9W&lt;BR&gt;
      RJ-9X&lt;BR&gt;
      -&lt;BR&gt;
      -&lt;BR&gt;
      -&lt;BR&gt;
      -&lt;BR&gt;
      -&lt;BR&gt;
      -&lt;BR&gt;
      -&lt;BR&gt;&lt;/FONT&gt;
    &lt;/TD&gt;
    &lt;TD BGCOLOR="#cccccc" ALIGN=CENTER&gt;&lt;FONT FACE=ARIAL SIZE=3&gt;
      -&lt;BR&gt;
      -&lt;BR&gt;
      -&lt;BR&gt;
      -&lt;BR&gt;
      -&lt;BR&gt;
      -&lt;BR&gt;
      -&lt;BR&gt;
      -&lt;BR&gt;
      -&lt;BR&gt;
      -&lt;BR&gt;
      3103P&lt;BR&gt;
      3103Y&lt;BR&gt;
      3103Z&lt;BR&gt;
      3103P&lt;BR&gt;
      3103Y&lt;BR&gt;
      3103Z&lt;BR&gt;
      -&lt;BR&gt;
      -&lt;BR&gt;
      -&lt;BR&gt;
      -&lt;BR&gt;
      -&lt;BR&gt;
      -&lt;BR&gt;
      3105P/3106P&lt;BR&gt;
      3105W/3106W&lt;BR&gt;
      3105X/3106X&lt;BR&gt;
      3105Y/3106Y&lt;BR&gt;
      3105Z/3105Z&lt;BR&gt;
      3102P&lt;BR&gt;
      3102W&lt;BR&gt;
      3102X&lt;BR&gt;
      3102Y&lt;BR&gt;
      3102Z&lt;BR&gt;&lt;/FONT&gt;
    &lt;/TD&gt;
    &lt;TD BGCOLOR="#cccccc" ALIGN=CENTER&gt;&lt;FONT FACE=ARIAL SIZE=3&gt;
      -&lt;BR&gt;
      -&lt;BR&gt;
      -&lt;BR&gt;
      -&lt;BR&gt;
      -&lt;BR&gt;
      -&lt;BR&gt;
      -&lt;BR&gt;
      -&lt;BR&gt;
      -&lt;BR&gt;
      -&lt;BR&gt;
      -&lt;BR&gt;
      -&lt;BR&gt;
      -&lt;BR&gt;
      -&lt;BR&gt;
      -&lt;BR&gt;
      -&lt;BR&gt;
      -&lt;BR&gt;
      -&lt;BR&gt;
      -&lt;BR&gt;
      -&lt;BR&gt;
      -&lt;BR&gt;
      -&lt;BR&gt;
      EVMCBG&lt;BR&gt;
      EVMCCG&lt;BR&gt;
      -&lt;BR&gt;
      -&lt;BR&gt;
      -&lt;BR&gt;
      -&lt;BR&gt;
      -&lt;BR&gt;
      -&lt;BR&gt;
      -&lt;BR&gt;
      -&lt;BR&gt;&lt;/FONT&gt;
    &lt;/TD&gt;
    &lt;TD BGCOLOR="#cccccc" ALIGN=CENTER&gt;&lt;FONT FACE=ARIAL SIZE=3&gt;
      55-1-X&lt;BR&gt;
      55-4-X&lt;BR&gt;
      55-3-X&lt;BR&gt;
      55-2-X&lt;BR&gt;
      -&lt;BR&gt;
      -&lt;BR&gt;
      -&lt;BR&gt;
      -&lt;BR&gt;
      -&lt;BR&gt;
      -&lt;BR&gt;
      -&lt;BR&gt;
      -&lt;BR&gt;
      -&lt;BR&gt;
      -&lt;BR&gt;
      -&lt;BR&gt;
      -&lt;BR&gt;
      50-2-X&lt;BR&gt;
      50-4-X&lt;BR&gt;
      50-3-X&lt;BR&gt;
      -&lt;BR&gt;
      -&lt;BR&gt;
      -&lt;BR&gt;
      64P&lt;BR&gt;
      64W&lt;BR&gt;
      64X&lt;BR&gt;
      64Y&lt;BR&gt;
      64Z&lt;BR&gt;
      -&lt;BR&gt;
      -&lt;BR&gt;
      -&lt;BR&gt;
      -&lt;BR&gt;
      -&lt;BR&gt;&lt;/FONT&gt;
    &lt;/TD&gt;
    &lt;TD BGCOLOR="#cccccc" ALIGN=CENTER&gt;&lt;FONT FACE=ARIAL SIZE=3&gt;
      RT/RTR22&lt;BR&gt;
      RT/RTR22&lt;BR&gt;
      RT/RTR22&lt;BR&gt;
      RT/RTR22&lt;BR&gt;
      RJ/RJR22&lt;BR&gt;
      RJ/RJR22&lt;BR&gt;
      RJ/RJR22&lt;BR&gt;
      RT/RTR26&lt;BR&gt;
      RT/RTR26&lt;BR&gt;
      RT/RTR26&lt;BR&gt;
      RJ/RJR26&lt;BR&gt;
      RJ/RJR26&lt;BR&gt;
      RJ/RJR26&lt;BR&gt;
      RJ/RJR26&lt;BR&gt;
      RJ/RJR26&lt;BR&gt;
      RJ/RJR26&lt;BR&gt;
      RT/RTR24&lt;BR&gt;
      RT/RTR24&lt;BR&gt;
      RT/RTR24&lt;BR&gt;
      RJ/RJR24&lt;BR&gt;
      RJ/RJR24&lt;BR&gt;
      RJ/RJR24&lt;BR&gt;
      RJ/RJR24&lt;BR&gt;
      RJ/RJR24&lt;BR&gt;
      RJ/RJR24&lt;BR&gt;
      -&lt;BR&gt;
      -&lt;BR&gt;
      -&lt;BR&gt;
      -&lt;BR&gt;
      -&lt;BR&gt;
      -&lt;BR&gt;
      -&lt;BR&gt;&lt;/FONT&gt;
    &lt;/TD&gt;
  &lt;/TR&gt;
  &lt;TR&gt;
    &lt;TD COLSPAN=8&gt;&amp;nbsp;
    &lt;/TD&gt;
  &lt;/TR&gt;
  &lt;TR&gt;
    &lt;TD COLSPAN=8&gt;
      &lt;FONT SIZE=4 FACE=ARIAL&gt;&lt;B&gt;SINGLE TURN&lt;/B&gt;&lt;/FONT&gt;
    &lt;/TD&gt;
  &lt;/TR&gt;
  &lt;TR&gt;
    &lt;TD ALIGN=CENTER&gt;
      &lt;FONT SIZE=3 FACE=ARIAL&gt;&lt;B&gt;BOURN&lt;/B&gt;&lt;/FONT&gt;
    &lt;/TD&gt;
    &lt;TD ALIGN=CENTER&gt;
      &lt;FONT SIZE=3 FACE=ARIAL&gt;&lt;B&gt;BI&amp;nbsp;TECH&lt;/B&gt;&lt;/FONT&gt;
    &lt;/TD&gt;
    &lt;TD ALIGN=CENTER&gt;
      &lt;FONT SIZE=3 FACE=ARIAL&gt;&lt;B&gt;DALE-VISHAY&lt;/B&gt;&lt;/FONT&gt;
    &lt;/TD&gt;
    &lt;TD ALIGN=CENTER&gt;
      &lt;FONT SIZE=3 FACE=ARIAL&gt;&lt;B&gt;PHILIPS/MEPCO&lt;/B&gt;&lt;/FONT&gt;
    &lt;/TD&gt;
    &lt;TD ALIGN=CENTER&gt;
      &lt;FONT SIZE=3 FACE=ARIAL&gt;&lt;B&gt;MURATA&lt;/B&gt;&lt;/FONT&gt;
    &lt;/TD&gt;
    &lt;TD ALIGN=CENTER&gt;
      &lt;FONT SIZE=3 FACE=ARIAL&gt;&lt;B&gt;PANASONIC&lt;/B&gt;&lt;/FONT&gt;
    &lt;/TD&gt;
    &lt;TD ALIGN=CENTER&gt;
      &lt;FONT SIZE=3 FACE=ARIAL&gt;&lt;B&gt;SPECTROL&lt;/B&gt;&lt;/FONT&gt;
    &lt;/TD&gt;
    &lt;TD ALIGN=CENTER&gt;
      &lt;FONT SIZE=3 FACE=ARIAL&gt;&lt;B&gt;MILSPEC&lt;/B&gt;&lt;/FONT&gt;
    &lt;/TD&gt;
  &lt;/TR&gt;
  &lt;TR&gt;
    &lt;TD BGCOLOR="#cccccc" ALIGN=CENTER&gt;&lt;FONT FACE=ARIAL SIZE=3&gt;
      3323P&lt;BR&gt;
      3323S&lt;BR&gt;
      3323W&lt;BR&gt;
      3329H&lt;BR&gt;
      3329P&lt;BR&gt;
      3329W&lt;BR&gt;
      3339H&lt;BR&gt;
      3339P&lt;BR&gt;
      3339W&lt;BR&gt;
      3352E&lt;BR&gt;
      3352H&lt;BR&gt;
      3352K&lt;BR&gt;
      3352P&lt;BR&gt;
      3352T&lt;BR&gt;
      3352V&lt;BR&gt;
      3352W&lt;BR&gt;
      3362H&lt;BR&gt;
      3362M&lt;BR&gt;
      3362P&lt;BR&gt;
      3362R&lt;BR&gt;
      3362S&lt;BR&gt;
      3362U&lt;BR&gt;
      3362W&lt;BR&gt;
      3362X&lt;BR&gt;
      3386B&lt;BR&gt;
      3386C&lt;BR&gt;
      3386F&lt;BR&gt;
      3386H&lt;BR&gt;
      3386K&lt;BR&gt;
      3386M&lt;BR&gt;
      3386P&lt;BR&gt;
      3386S&lt;BR&gt;
      3386W&lt;BR&gt;
      3386X&lt;BR&gt;&lt;/FONT&gt;
    &lt;/TD&gt;
    &lt;TD BGCOLOR="#cccccc" ALIGN=CENTER&gt;&lt;FONT FACE=ARIAL SIZE=3&gt;
      25P&lt;BR&gt;
      25S&lt;BR&gt;
      25RX&lt;BR&gt;
      82P&lt;BR&gt;
      82M&lt;BR&gt;
      82PA&lt;BR&gt;
      -&lt;BR&gt;
      -&lt;BR&gt;
      -&lt;BR&gt;
      91E&lt;BR&gt;
      91X&lt;BR&gt;
      91T&lt;BR&gt;
      91B&lt;BR&gt;
      91A&lt;BR&gt;
      91V&lt;BR&gt;
      91W&lt;BR&gt;
      25W&lt;BR&gt;
      25V&lt;BR&gt;
      25P&lt;BR&gt;
      -&lt;BR&gt;
      25S&lt;BR&gt;
      25U&lt;BR&gt;
      25RX&lt;BR&gt;
      25X&lt;BR&gt;
      72XW&lt;BR&gt;
      72XL&lt;BR&gt;
      72PM&lt;BR&gt;
      72RX&lt;BR&gt;
      -&lt;BR&gt;
      72PX&lt;BR&gt;
      72P&lt;BR&gt;
      72RXW&lt;BR&gt;
      72RXL&lt;BR&gt;
      72X&lt;BR&gt;&lt;/FONT&gt;
    &lt;/TD&gt;
    &lt;TD BGCOLOR="#cccccc" ALIGN=CENTER&gt;&lt;FONT FACE=ARIAL SIZE=3&gt;
      -&lt;BR&gt;
      -&lt;BR&gt;
      -&lt;BR&gt;
      T7YB&lt;BR&gt;
      T7YA&lt;BR&gt;
      -&lt;BR&gt;
      -&lt;BR&gt;
      -&lt;BR&gt;
      -&lt;BR&gt;
      -&lt;BR&gt;
      -&lt;BR&gt;
      -&lt;BR&gt;
      -&lt;BR&gt;
      -&lt;BR&gt;
      -&lt;BR&gt;
      -&lt;BR&gt;
      -&lt;BR&gt;
      TXD&lt;BR&gt;
      TYA&lt;BR&gt;
      TYP&lt;BR&gt;
      -&lt;BR&gt;
      TYD&lt;BR&gt;
      TX&lt;BR&gt;
      -&lt;BR&gt;
      150SX&lt;BR&gt;
      100SX&lt;BR&gt;
      102T&lt;BR&gt;
      101S&lt;BR&gt;
      190T&lt;BR&gt;
      150TX&lt;BR&gt;
      101&lt;BR&gt;
      -&lt;BR&gt;
      -&lt;BR&gt;
      101SX&lt;BR&gt;&lt;/FONT&gt;
    &lt;/TD&gt;
    &lt;TD BGCOLOR="#cccccc" ALIGN=CENTER&gt;&lt;FONT FACE=ARIAL SIZE=3&gt;
      ET6P&lt;BR&gt;
      ET6S&lt;BR&gt;
      ET6X&lt;BR&gt;
      RJ-6W/8014EMW&lt;BR&gt;
      RJ-6P/8014EMP&lt;BR&gt;
      RJ-6X/8014EMX&lt;BR&gt;
      TM7W&lt;BR&gt;
      TM7P&lt;BR&gt;
      TM7X&lt;BR&gt;
      -&lt;BR&gt;
      8017SMS&lt;BR&gt;
      -&lt;BR&gt;
      8017SMB&lt;BR&gt;
      8017SMA&lt;BR&gt;
      -&lt;BR&gt;
      -&lt;BR&gt;
      CT-6W&lt;BR&gt;
      CT-6H&lt;BR&gt;
      CT-6P&lt;BR&gt;
      CT-6R&lt;BR&gt;
      -&lt;BR&gt;
      CT-6V&lt;BR&gt;
      CT-6X&lt;BR&gt;
      -&lt;BR&gt;
      -&lt;BR&gt;
      8038EKV&lt;BR&gt;
      -&lt;BR&gt;
      8038EKX&lt;BR&gt;
      -&lt;BR&gt;
      -&lt;BR&gt;
      8038EKP&lt;BR&gt;
      8038EKZ&lt;BR&gt;
      8038EKW&lt;BR&gt;
      -&lt;BR&gt;&lt;/FONT&gt;
    &lt;/TD&gt;
    &lt;TD BGCOLOR="#cccccc" ALIGN=CENTER&gt;&lt;FONT FACE=ARIAL SIZE=3&gt;
      -&lt;BR&gt;
      -&lt;BR&gt;
      -&lt;BR&gt;
      3321H&lt;BR&gt;
      3321P&lt;BR&gt;
      3321N&lt;BR&gt;
      1102H&lt;BR&gt;
      1102P&lt;BR&gt;
      1102T&lt;BR&gt;
      RVA0911V304A&lt;BR&gt;
      -&lt;BR&gt;
      RVA0911H413A&lt;BR&gt;
      RVG0707V100A&lt;BR&gt;
      RVA0607V(H)306A&lt;BR&gt;
      RVA1214H213A&lt;BR&gt;
      -&lt;BR&gt;
      -&lt;BR&gt;
      -&lt;BR&gt;
      -&lt;BR&gt;
      -&lt;BR&gt;
      -&lt;BR&gt;
      -&lt;BR&gt;
      -&lt;BR&gt;
      -&lt;BR&gt;
      3104B&lt;BR&gt;
      3104C&lt;BR&gt;
      3104F&lt;BR&gt;
      3104H&lt;BR&gt;
      -&lt;BR&gt;
      3104M&lt;BR&gt;
      3104P&lt;BR&gt;
      3104S&lt;BR&gt;
      3104W&lt;BR&gt;
      3104X&lt;BR&gt;&lt;/FONT&gt;
    &lt;/TD&gt;
    &lt;TD BGCOLOR="#cccccc" ALIGN=CENTER&gt;&lt;FONT FACE=ARIAL SIZE=3&gt;
      EVMQ0G&lt;BR&gt;
      EVMQIG&lt;BR&gt;
      EVMQ3G&lt;BR&gt;
      EVMS0G&lt;BR&gt;
      EVMQ0G&lt;BR&gt;
      EVMG0G&lt;BR&gt;
      -&lt;BR&gt;
      -&lt;BR&gt;
      -&lt;BR&gt;
      EVMK4GA00B&lt;BR&gt;
      EVM30GA00B&lt;BR&gt;
      EVMK0GA00B&lt;BR&gt;
      EVM38GA00B&lt;BR&gt;
      EVMB6&lt;BR&gt;
      EVLQ0&lt;BR&gt;
      -&lt;BR&gt;
      EVMMSG&lt;BR&gt;
      EVMMBG&lt;BR&gt;
      EVMMAG&lt;BR&gt;
      -&lt;BR&gt;
      -&lt;BR&gt;
      EVMMCS&lt;BR&gt;
      -&lt;BR&gt;
      -&lt;BR&gt;
      -&lt;BR&gt;
      -&lt;BR&gt;
      -&lt;BR&gt;
      EVMM1&lt;BR&gt;
      -&lt;BR&gt;
      -&lt;BR&gt;
      EVMM0&lt;BR&gt;
      -&lt;BR&gt;
      -&lt;BR&gt;
      EVMM3&lt;BR&gt;&lt;/FONT&gt;
    &lt;/TD&gt;
    &lt;TD BGCOLOR="#cccccc" ALIGN=CENTER&gt;&lt;FONT FACE=ARIAL SIZE=3&gt;
      -&lt;BR&gt;
      -&lt;BR&gt;
      -&lt;BR&gt;
      62-3-1&lt;BR&gt;
      62-1-2&lt;BR&gt;
      -&lt;BR&gt;
      -&lt;BR&gt;
      -&lt;BR&gt;
      -&lt;BR&gt;
      -&lt;BR&gt;
      -&lt;BR&gt;
      -&lt;BR&gt;
      -&lt;BR&gt;
      -&lt;BR&gt;
      -&lt;BR&gt;
      -&lt;BR&gt;
      67R&lt;BR&gt;
      -&lt;BR&gt;
      67P&lt;BR&gt;
      -&lt;BR&gt;
      -&lt;BR&gt;
      -&lt;BR&gt;
      -&lt;BR&gt;
      67X&lt;BR&gt;
      63V&lt;BR&gt;
      63S&lt;BR&gt;
      63M&lt;BR&gt;
      -&lt;BR&gt;
      -&lt;BR&gt;
      63H&lt;BR&gt;
      63P&lt;BR&gt;
      -&lt;BR&gt;
      -&lt;BR&gt;
      63X&lt;BR&gt;&lt;/FONT&gt;
    &lt;/TD&gt;
    &lt;TD BGCOLOR="#cccccc" ALIGN=CENTER&gt;&lt;FONT FACE=ARIAL SIZE=3&gt;
      -&lt;BR&gt;
      -&lt;BR&gt;
      -&lt;BR&gt;
      RJ/RJR50&lt;BR&gt;
      RJ/RJR50&lt;BR&gt;
      RJ/RJR50&lt;BR&gt;
      -&lt;BR&gt;
      -&lt;BR&gt;
      -&lt;BR&gt;
      -&lt;BR&gt;
      -&lt;BR&gt;
      -&lt;BR&gt;
      -&lt;BR&gt;
      -&lt;BR&gt;
      -&lt;BR&gt;
      -&lt;BR&gt;
      -&lt;BR&gt;
      -&lt;BR&gt;
      -&lt;BR&gt;
      -&lt;BR&gt;
      -&lt;BR&gt;
      -&lt;BR&gt;
      -&lt;BR&gt;
      -&lt;BR&gt;
      -&lt;BR&gt;
      -&lt;BR&gt;
      -&lt;BR&gt;
      -&lt;BR&gt;
      -&lt;BR&gt;
      -&lt;BR&gt;
      -&lt;BR&gt;
      -&lt;BR&gt;
      -&lt;BR&gt;
      -&lt;BR&gt;&lt;/FONT&gt;
    &lt;/TD&gt;
  &lt;/TR&gt;
&lt;/TABLE&gt;
&lt;P&gt;&amp;nbsp;&lt;P&gt;
&lt;TABLE BORDER=0 CELLSPACING=1 CELLPADDING=3&gt;
  &lt;TR&gt;
    &lt;TD COLSPAN=7&gt;
      &lt;FONT color="#0000FF" SIZE=4 FACE=ARIAL&gt;&lt;B&gt;SMD TRIM-POT CROSS REFERENCE&lt;/B&gt;&lt;/FONT&gt;
      &lt;P&gt;
      &lt;FONT SIZE=4 FACE=ARIAL&gt;&lt;B&gt;MULTI-TURN&lt;/B&gt;&lt;/FONT&gt;
    &lt;/TD&gt;
  &lt;/TR&gt;
  &lt;TR&gt;
    &lt;TD&gt;
      &lt;FONT SIZE=3 FACE=ARIAL&gt;&lt;B&gt;BOURNS&lt;/B&gt;&lt;/FONT&gt;
    &lt;/TD&gt;
    &lt;TD&gt;
      &lt;FONT SIZE=3 FACE=ARIAL&gt;&lt;B&gt;BI&amp;nbsp;TECH&lt;/B&gt;&lt;/FONT&gt;
    &lt;/TD&gt;
    &lt;TD&gt;
      &lt;FONT SIZE=3 FACE=ARIAL&gt;&lt;B&gt;DALE-VISHAY&lt;/B&gt;&lt;/FONT&gt;
    &lt;/TD&gt;
    &lt;TD&gt;
      &lt;FONT SIZE=3 FACE=ARIAL&gt;&lt;B&gt;PHILIPS/MEPCO&lt;/B&gt;&lt;/FONT&gt;
    &lt;/TD&gt;
    &lt;TD&gt;
      &lt;FONT SIZE=3 FACE=ARIAL&gt;&lt;B&gt;PANASONIC&lt;/B&gt;&lt;/FONT&gt;
    &lt;/TD&gt;
    &lt;TD&gt;
      &lt;FONT SIZE=3 FACE=ARIAL&gt;&lt;B&gt;TOCOS&lt;/B&gt;&lt;/FONT&gt;
    &lt;/TD&gt;
    &lt;TD&gt;
      &lt;FONT SIZE=3 FACE=ARIAL&gt;&lt;B&gt;AUX/KYOCERA&lt;/B&gt;&lt;/FONT&gt;
    &lt;/TD&gt;
  &lt;/TR&gt;
  &lt;TR&gt;
    &lt;TD BGCOLOR="#cccccc" ALIGN=CENTER&gt;&lt;FONT FACE=ARIAL SIZE=3&gt;
      3224G&lt;BR&gt;
      3224J&lt;BR&gt;
      3224W&lt;BR&gt;
      3269P&lt;BR&gt;
      3269W&lt;BR&gt;
      3269X&lt;BR&gt;&lt;/FONT&gt;
    &lt;/TD&gt;
    &lt;TD BGCOLOR="#cccccc" ALIGN=CENTER&gt;&lt;FONT FACE=ARIAL SIZE=3&gt;
      44G&lt;BR&gt;
      44J&lt;BR&gt;
      44W&lt;BR&gt;
      84P&lt;BR&gt;
      84W&lt;BR&gt;
      84X&lt;BR&gt;&lt;/FONT&gt;
    &lt;/TD&gt;
    &lt;TD BGCOLOR="#cccccc" ALIGN=CENTER&gt;&lt;FONT FACE=ARIAL SIZE=3&gt;
      -&lt;BR&gt;
      -&lt;BR&gt;
      -&lt;BR&gt;
      ST63Z&lt;BR&gt;
      ST63Y&lt;BR&gt;
      -&lt;BR&gt;&lt;/FONT&gt;
    &lt;/TD&gt;
    &lt;TD BGCOLOR="#cccccc" ALIGN=CENTER&gt;&lt;FONT FACE=ARIAL SIZE=3&gt;
      -&lt;BR&gt;
      -&lt;BR&gt;
      -&lt;BR&gt;
      ST5P&lt;BR&gt;
      ST5W&lt;BR&gt;
      ST5X&lt;BR&gt;&lt;/FONT&gt;
    &lt;/TD&gt;
    &lt;TD BGCOLOR="#cccccc" ALIGN=CENTER&gt;&lt;FONT FACE=ARIAL SIZE=3&gt;
      -&lt;BR&gt;
      -&lt;BR&gt;
      -&lt;BR&gt;
      -&lt;BR&gt;
      -&lt;BR&gt;
      -&lt;BR&gt;&lt;/FONT&gt;
    &lt;/TD&gt;
    &lt;TD BGCOLOR="#cccccc" ALIGN=CENTER&gt;&lt;FONT FACE=ARIAL SIZE=3&gt;
      -&lt;BR&gt;
      -&lt;BR&gt;
      -&lt;BR&gt;
      -&lt;BR&gt;
      -&lt;BR&gt;
      -&lt;BR&gt;&lt;/FONT&gt;
    &lt;/TD&gt;
    &lt;TD BGCOLOR="#cccccc" ALIGN=CENTER&gt;&lt;FONT FACE=ARIAL SIZE=3&gt;
      -&lt;BR&gt;
      -&lt;BR&gt;
      -&lt;BR&gt;
      -&lt;BR&gt;
      -&lt;BR&gt;
      -&lt;BR&gt;&lt;/FONT&gt;
    &lt;/TD&gt;
  &lt;/TR&gt;
  &lt;TR&gt;
    &lt;TD COLSPAN=7&gt;&amp;nbsp;
    &lt;/TD&gt;
  &lt;/TR&gt;
  &lt;TR&gt;
    &lt;TD COLSPAN=7&gt;
      &lt;FONT SIZE=4 FACE=ARIAL&gt;&lt;B&gt;SINGLE TURN&lt;/B&gt;&lt;/FONT&gt;
    &lt;/TD&gt;
  &lt;/TR&gt;
  &lt;TR&gt;
    &lt;TD&gt;
      &lt;FONT SIZE=3 FACE=ARIAL&gt;&lt;B&gt;BOURNS&lt;/B&gt;&lt;/FONT&gt;
    &lt;/TD&gt;
    &lt;TD&gt;
      &lt;FONT SIZE=3 FACE=ARIAL&gt;&lt;B&gt;BI&amp;nbsp;TECH&lt;/B&gt;&lt;/FONT&gt;
    &lt;/TD&gt;
    &lt;TD&gt;
      &lt;FONT SIZE=3 FACE=ARIAL&gt;&lt;B&gt;DALE-VISHAY&lt;/B&gt;&lt;/FONT&gt;
    &lt;/TD&gt;
    &lt;TD&gt;
      &lt;FONT SIZE=3 FACE=ARIAL&gt;&lt;B&gt;PHILIPS/MEPCO&lt;/B&gt;&lt;/FONT&gt;
    &lt;/TD&gt;
    &lt;TD&gt;
      &lt;FONT SIZE=3 FACE=ARIAL&gt;&lt;B&gt;PANASONIC&lt;/B&gt;&lt;/FONT&gt;
    &lt;/TD&gt;
    &lt;TD&gt;
      &lt;FONT SIZE=3 FACE=ARIAL&gt;&lt;B&gt;TOCOS&lt;/B&gt;&lt;/FONT&gt;
    &lt;/TD&gt;
    &lt;TD&gt;
      &lt;FONT SIZE=3 FACE=ARIAL&gt;&lt;B&gt;AUX/KYOCERA&lt;/B&gt;&lt;/FONT&gt;
    &lt;/TD&gt;
  &lt;/TR&gt;
  &lt;TR&gt;
    &lt;TD BGCOLOR="#cccccc" ALIGN=CENTER&gt;&lt;FONT FACE=ARIAL SIZE=3&gt;
      3314G&lt;BR&gt;
      3314J&lt;BR&gt;
      3364A/B&lt;BR&gt;
      3364C/D&lt;BR&gt;
      3364W/X&lt;BR&gt;
      3313G&lt;BR&gt;
      3313J&lt;BR&gt;&lt;/FONT&gt;
    &lt;/TD&gt;
    &lt;TD BGCOLOR="#cccccc" ALIGN=CENTER&gt;&lt;FONT FACE=ARIAL SIZE=3&gt;
      23B&lt;BR&gt;
      23A&lt;BR&gt;
      21X&lt;BR&gt;
      21W&lt;BR&gt;
      -&lt;BR&gt;
      22B&lt;BR&gt;
      22A&lt;BR&gt;&lt;/FONT&gt;
    &lt;/TD&gt;
    &lt;TD BGCOLOR="#cccccc" ALIGN=CENTER&gt;&lt;FONT FACE=ARIAL SIZE=3&gt;
      ST5YL/ST53YL&lt;BR&gt;
      ST5YJ/5T53YJ&lt;BR&gt;
      ST-23A&lt;BR&gt;
      ST-22B&lt;BR&gt;
      ST-22&lt;BR&gt;
      -&lt;BR&gt;
      -&lt;BR&gt;&lt;/FONT&gt;
    &lt;/TD&gt;
    &lt;TD BGCOLOR="#cccccc" ALIGN=CENTER&gt;&lt;FONT FACE=ARIAL SIZE=3&gt;
      ST-4B&lt;BR&gt;
      ST-4A&lt;BR&gt;
      -&lt;BR&gt;
      -&lt;BR&gt;
      -&lt;BR&gt;
      ST-3B&lt;BR&gt;
      ST-3A&lt;BR&gt;&lt;/FONT&gt;
    &lt;/TD&gt;
    &lt;TD BGCOLOR="#cccccc" ALIGN=CENTER&gt;&lt;FONT FACE=ARIAL SIZE=3&gt;
      -&lt;BR&gt;
      EVM-6YS&lt;BR&gt;
      EVM-1E&lt;BR&gt;
      EVM-1G&lt;BR&gt;
      EVM-1D&lt;BR&gt;
      -&lt;BR&gt;
      -&lt;BR&gt;&lt;/FONT&gt;
    &lt;/TD&gt;
    &lt;TD BGCOLOR="#cccccc" ALIGN=CENTER&gt;&lt;FONT FACE=ARIAL SIZE=3&gt;
      G4B&lt;BR&gt;
      G4A&lt;BR&gt;
      TR04-3S1&lt;BR&gt;
      TRG04-2S1&lt;BR&gt;
      -&lt;BR&gt;
      -&lt;BR&gt;
      -&lt;BR&gt;&lt;/FONT&gt;
    &lt;/TD&gt;
    &lt;TD BGCOLOR="#cccccc" ALIGN=CENTER&gt;&lt;FONT FACE=ARIAL SIZE=3&gt;
      -&lt;BR&gt;
      -&lt;BR&gt;
      DVR-43A&lt;BR&gt;
      CVR-42C&lt;BR&gt;
      CVR-42A/C&lt;BR&gt;
      -&lt;BR&gt;
      -&lt;BR&gt;&lt;/FONT&gt;
    &lt;/TD&gt;
  &lt;/TR&gt;
&lt;/TABLE&gt;
&lt;P&gt;
&lt;FONT SIZE=4 FACE=ARIAL&gt;&lt;B&gt;ALT =&amp;nbsp;ALTERNATE&lt;/B&gt;&lt;/FONT&gt;
&lt;P&gt;

&amp;nbsp;
&lt;P&gt;
&lt;/td&gt;
&lt;/tr&gt;
&lt;/table&gt;</description>
<packages>
<package name="C1206">
<description>&lt;b&gt;CAPACITOR&lt;/b&gt;</description>
<wire x1="-2.473" y1="0.983" x2="2.473" y2="0.983" width="0.0508" layer="39"/>
<wire x1="2.473" y1="-0.983" x2="-2.473" y2="-0.983" width="0.0508" layer="39"/>
<wire x1="-2.473" y1="-0.983" x2="-2.473" y2="0.983" width="0.0508" layer="39"/>
<wire x1="2.473" y1="0.983" x2="2.473" y2="-0.983" width="0.0508" layer="39"/>
<wire x1="-0.965" y1="0.787" x2="0.965" y2="0.787" width="0.1016" layer="51"/>
<wire x1="-0.965" y1="-0.787" x2="0.965" y2="-0.787" width="0.1016" layer="51"/>
<smd name="1" x="-1.4" y="0" dx="1.6" dy="1.8" layer="1"/>
<smd name="2" x="1.4" y="0" dx="1.6" dy="1.8" layer="1"/>
<text x="-1.27" y="1.27" size="1.27" layer="25">&gt;NAME</text>
<text x="-1.27" y="-2.54" size="1.27" layer="27">&gt;VALUE</text>
<rectangle x1="-1.7018" y1="-0.8509" x2="-0.9517" y2="0.8491" layer="51"/>
<rectangle x1="0.9517" y1="-0.8491" x2="1.7018" y2="0.8509" layer="51"/>
<rectangle x1="-0.1999" y1="-0.4001" x2="0.1999" y2="0.4001" layer="35"/>
</package>
</packages>
</library>
</libraries>
<attributes>
</attributes>
<variantdefs>
</variantdefs>
<classes>
<class number="0" name="default" width="0" drill="0">
</class>
</classes>
<designrules name="default">
<description language="de">&lt;b&gt;EAGLE Design Rules&lt;/b&gt;
&lt;p&gt;
Die Standard-Design-Rules sind so gewählt, dass sie für 
die meisten Anwendungen passen. Sollte ihre Platine 
besondere Anforderungen haben, treffen Sie die erforderlichen
Einstellungen hier und speichern die Design Rules unter 
einem neuen Namen ab.</description>
<description language="en">&lt;b&gt;EAGLE Design Rules&lt;/b&gt;
&lt;p&gt;
The default Design Rules have been set to cover
a wide range of applications. Your particular design
may have different requirements, so please make the
necessary adjustments and save your customized
design rules under a new name.</description>
<param name="layerSetup" value="(1*16)"/>
<param name="mtCopper" value="0.035mm 0.035mm 0.035mm 0.035mm 0.035mm 0.035mm 0.035mm 0.035mm 0.035mm 0.035mm 0.035mm 0.035mm 0.035mm 0.035mm 0.035mm 0.035mm"/>
<param name="mtIsolate" value="1.5mm 0.15mm 0.2mm 0.15mm 0.2mm 0.15mm 0.2mm 0.15mm 0.2mm 0.15mm 0.2mm 0.15mm 0.2mm 0.15mm 0.2mm"/>
<param name="mdWireWire" value="8mil"/>
<param name="mdWirePad" value="8mil"/>
<param name="mdWireVia" value="8mil"/>
<param name="mdPadPad" value="8mil"/>
<param name="mdPadVia" value="8mil"/>
<param name="mdViaVia" value="8mil"/>
<param name="mdSmdPad" value="8mil"/>
<param name="mdSmdVia" value="8mil"/>
<param name="mdSmdSmd" value="8mil"/>
<param name="mdViaViaSameLayer" value="8mil"/>
<param name="mnLayersViaInSmd" value="2"/>
<param name="mdCopperDimension" value="40mil"/>
<param name="mdDrill" value="8mil"/>
<param name="mdSmdStop" value="0mil"/>
<param name="msWidth" value="10mil"/>
<param name="msDrill" value="24mil"/>
<param name="msMicroVia" value="9.99mm"/>
<param name="msBlindViaRatio" value="0.5"/>
<param name="rvPadTop" value="0.25"/>
<param name="rvPadInner" value="0.25"/>
<param name="rvPadBottom" value="0.25"/>
<param name="rvViaOuter" value="0.25"/>
<param name="rvViaInner" value="0.25"/>
<param name="rvMicroViaOuter" value="0.25"/>
<param name="rvMicroViaInner" value="0.25"/>
<param name="rlMinPadTop" value="10mil"/>
<param name="rlMaxPadTop" value="20mil"/>
<param name="rlMinPadInner" value="10mil"/>
<param name="rlMaxPadInner" value="20mil"/>
<param name="rlMinPadBottom" value="10mil"/>
<param name="rlMaxPadBottom" value="20mil"/>
<param name="rlMinViaOuter" value="8mil"/>
<param name="rlMaxViaOuter" value="20mil"/>
<param name="rlMinViaInner" value="8mil"/>
<param name="rlMaxViaInner" value="20mil"/>
<param name="rlMinMicroViaOuter" value="4mil"/>
<param name="rlMaxMicroViaOuter" value="20mil"/>
<param name="rlMinMicroViaInner" value="4mil"/>
<param name="rlMaxMicroViaInner" value="20mil"/>
<param name="psTop" value="-1"/>
<param name="psBottom" value="-1"/>
<param name="psFirst" value="-1"/>
<param name="psElongationLong" value="100"/>
<param name="psElongationOffset" value="100"/>
<param name="mvStopFrame" value="1"/>
<param name="mvCreamFrame" value="0"/>
<param name="mlMinStopFrame" value="4mil"/>
<param name="mlMaxStopFrame" value="4mil"/>
<param name="mlMinCreamFrame" value="0mil"/>
<param name="mlMaxCreamFrame" value="0mil"/>
<param name="mlViaStopLimit" value="0mil"/>
<param name="srRoundness" value="0"/>
<param name="srMinRoundness" value="0mil"/>
<param name="srMaxRoundness" value="0mil"/>
<param name="slThermalIsolate" value="10mil"/>
<param name="slThermalsForVias" value="0"/>
<param name="dpMaxLengthDifference" value="10mm"/>
<param name="dpGapFactor" value="2.5"/>
<param name="checkGrid" value="0"/>
<param name="checkAngle" value="0"/>
<param name="checkFont" value="1"/>
<param name="checkRestrict" value="1"/>
<param name="useDiameter" value="13"/>
<param name="maxErrors" value="50"/>
</designrules>
<autorouter>
<pass name="Default">
<param name="RoutingGrid" value="50mil"/>
<param name="AutoGrid" value="1"/>
<param name="Efforts" value="0"/>
<param name="TopRouterVariant" value="1"/>
<param name="tpViaShape" value="round"/>
<param name="PrefDir.1" value="a"/>
<param name="PrefDir.2" value="0"/>
<param name="PrefDir.3" value="0"/>
<param name="PrefDir.4" value="0"/>
<param name="PrefDir.5" value="0"/>
<param name="PrefDir.6" value="0"/>
<param name="PrefDir.7" value="0"/>
<param name="PrefDir.8" value="0"/>
<param name="PrefDir.9" value="0"/>
<param name="PrefDir.10" value="0"/>
<param name="PrefDir.11" value="0"/>
<param name="PrefDir.12" value="0"/>
<param name="PrefDir.13" value="0"/>
<param name="PrefDir.14" value="0"/>
<param name="PrefDir.15" value="0"/>
<param name="PrefDir.16" value="a"/>
<param name="cfVia" value="8"/>
<param name="cfNonPref" value="5"/>
<param name="cfChangeDir" value="2"/>
<param name="cfOrthStep" value="2"/>
<param name="cfDiagStep" value="3"/>
<param name="cfExtdStep" value="0"/>
<param name="cfBonusStep" value="1"/>
<param name="cfMalusStep" value="1"/>
<param name="cfPadImpact" value="4"/>
<param name="cfSmdImpact" value="4"/>
<param name="cfBusImpact" value="0"/>
<param name="cfHugging" value="3"/>
<param name="cfAvoid" value="4"/>
<param name="cfPolygon" value="10"/>
<param name="cfBase.1" value="0"/>
<param name="cfBase.2" value="1"/>
<param name="cfBase.3" value="1"/>
<param name="cfBase.4" value="1"/>
<param name="cfBase.5" value="1"/>
<param name="cfBase.6" value="1"/>
<param name="cfBase.7" value="1"/>
<param name="cfBase.8" value="1"/>
<param name="cfBase.9" value="1"/>
<param name="cfBase.10" value="1"/>
<param name="cfBase.11" value="1"/>
<param name="cfBase.12" value="1"/>
<param name="cfBase.13" value="1"/>
<param name="cfBase.14" value="1"/>
<param name="cfBase.15" value="1"/>
<param name="cfBase.16" value="0"/>
<param name="mnVias" value="20"/>
<param name="mnSegments" value="9999"/>
<param name="mnExtdSteps" value="9999"/>
<param name="mnRipupLevel" value="10"/>
<param name="mnRipupSteps" value="100"/>
<param name="mnRipupTotal" value="100"/>
</pass>
<pass name="Follow-me" refer="Default" active="yes">
</pass>
<pass name="Busses" refer="Default" active="yes">
<param name="cfNonPref" value="4"/>
<param name="cfBusImpact" value="4"/>
<param name="cfHugging" value="0"/>
<param name="mnVias" value="0"/>
</pass>
<pass name="Route" refer="Default" active="yes">
</pass>
<pass name="Optimize1" refer="Default" active="yes">
<param name="cfVia" value="99"/>
<param name="cfExtdStep" value="10"/>
<param name="cfHugging" value="1"/>
<param name="mnExtdSteps" value="1"/>
<param name="mnRipupLevel" value="0"/>
</pass>
<pass name="Optimize2" refer="Optimize1" active="yes">
<param name="cfNonPref" value="0"/>
<param name="cfChangeDir" value="6"/>
<param name="cfExtdStep" value="0"/>
<param name="cfBonusStep" value="2"/>
<param name="cfMalusStep" value="2"/>
<param name="cfPadImpact" value="2"/>
<param name="cfSmdImpact" value="2"/>
<param name="cfHugging" value="0"/>
</pass>
<pass name="Optimize3" refer="Optimize2" active="yes">
<param name="cfChangeDir" value="8"/>
<param name="cfPadImpact" value="0"/>
<param name="cfSmdImpact" value="0"/>
</pass>
<pass name="Optimize4" refer="Optimize3" active="yes">
<param name="cfChangeDir" value="25"/>
</pass>
</autorouter>
<elements>
<element name="IC1" library="40xx" package="SO16" value="" x="40.64" y="46.99" rot="MR90"/>
<element name="JP5" library="pinhead" package="1X06" value="" x="53.086" y="46.99" rot="R270"/>
<element name="JP6" library="pinhead" package="1X06" value="" x="33.02" y="46.99" rot="R90"/>
<element name="JP2" library="pinhead" package="1X06" value="" x="39.116" y="62.23" rot="R180"/>
<element name="JP1" library="pinhead" package="1X02" value="" x="50.546" y="62.357"/>
<element name="C1" library="rcl" package="C1206" value="" x="39.751" y="54.991" rot="MR0"/>
<element name="C2" library="rcl" package="C1206" value="" x="48.895" y="42.926" rot="MR90"/>
<element name="C3" library="rcl" package="C1206" value="" x="46.482" y="42.926" rot="MR90"/>
</elements>
<signals>
<signal name="VEE">
<contactref element="IC1" pad="7"/>
</signal>
<signal name="GND">
<contactref element="IC1" pad="8"/>
<contactref element="JP6" pad="6"/>
<contactref element="JP5" pad="1"/>
<contactref element="JP5" pad="2"/>
<contactref element="JP2" pad="1"/>
<contactref element="JP2" pad="6"/>
<wire x1="53.086" y1="53.34" x2="53.086" y2="50.8" width="0.4064" layer="16"/>
<wire x1="32.766" y1="62.23" x2="32.766" y2="53.34" width="0.4064" layer="16"/>
<wire x1="32.893" y1="53.467" x2="33.02" y2="53.34" width="0.4064" layer="16"/>
<wire x1="53.086" y1="53.34" x2="53.594" y2="53.848" width="0.4064" layer="16"/>
<wire x1="53.594" y1="53.848" x2="53.594" y2="56.896" width="0.4064" layer="16"/>
<wire x1="53.594" y1="56.896" x2="53.594" y2="62.103" width="0.4064" layer="16"/>
<wire x1="53.594" y1="62.103" x2="53.594" y2="62.865" width="0.4064" layer="16"/>
<wire x1="53.594" y1="62.865" x2="53.594" y2="63.5" width="0.4064" layer="16"/>
<wire x1="53.594" y1="63.5" x2="52.959" y2="64.135" width="0.4064" layer="16"/>
<wire x1="52.959" y1="64.135" x2="52.705" y2="64.135" width="0.4064" layer="16"/>
<wire x1="51.435" y1="64.135" x2="45.212" y2="64.135" width="0.4064" layer="16"/>
<wire x1="45.212" y1="64.135" x2="43.815" y2="65.532" width="0.4064" layer="16"/>
<wire x1="45.212" y1="64.135" x2="45.466" y2="63.881" width="0.4064" layer="16"/>
<wire x1="45.466" y1="63.881" x2="45.466" y2="63.754" width="0.4064" layer="16"/>
<wire x1="45.466" y1="63.754" x2="45.466" y2="63.627" width="0.4064" layer="16"/>
<wire x1="45.466" y1="63.627" x2="45.466" y2="62.23" width="0.4064" layer="16"/>
<wire x1="33.02" y1="55.88" x2="33.02" y2="56.515" width="0.4064" layer="16"/>
<wire x1="33.02" y1="56.515" x2="33.02" y2="57.785" width="0.4064" layer="16"/>
<wire x1="33.02" y1="57.785" x2="33.02" y2="62.357" width="0.4064" layer="16"/>
<wire x1="32.766" y1="62.23" x2="32.766" y2="65.151" width="0.4064" layer="16"/>
<wire x1="32.766" y1="65.151" x2="33.655" y2="65.532" width="0.4064" layer="16"/>
<wire x1="33.655" y1="65.532" x2="43.815" y2="65.532" width="0.4064" layer="16"/>
<contactref element="IC1" pad="6"/>
<contactref element="JP1" pad="2"/>
<wire x1="51.816" y1="62.357" x2="53.34" y2="62.357" width="0.4064" layer="16"/>
<wire x1="53.34" y1="62.357" x2="53.594" y2="62.103" width="0.4064" layer="16"/>
<wire x1="37.5666" y1="48.895" x2="37.5666" y2="51.435" width="0.4064" layer="16"/>
<wire x1="37.5666" y1="51.435" x2="37.5666" y2="55.6514" width="0.4064" layer="16"/>
<wire x1="37.5666" y1="55.6514" x2="36.703" y2="56.515" width="0.4064" layer="16"/>
<wire x1="36.703" y1="56.515" x2="33.02" y2="56.515" width="0.4064" layer="16"/>
<contactref element="C1" pad="2"/>
<contactref element="C3" pad="2"/>
<contactref element="C2" pad="2"/>
<wire x1="48.895" y1="44.326" x2="46.482" y2="44.326" width="0.4064" layer="16"/>
<wire x1="48.895" y1="44.326" x2="48.895" y2="55.753" width="0.4064" layer="16"/>
<wire x1="48.895" y1="55.753" x2="49.911" y2="56.769" width="0.4064" layer="16"/>
<wire x1="49.911" y1="56.769" x2="53.467" y2="56.769" width="0.4064" layer="16"/>
<wire x1="53.467" y1="56.769" x2="53.594" y2="56.896" width="0.4064" layer="16"/>
<wire x1="46.482" y1="44.45" x2="46.482" y2="55.753" width="0.4064" layer="16"/>
<wire x1="46.482" y1="55.753" x2="48.006" y2="57.277" width="0.4064" layer="16"/>
<wire x1="48.006" y1="57.277" x2="50.927" y2="57.277" width="0.4064" layer="16"/>
<wire x1="50.927" y1="57.277" x2="51.816" y2="58.166" width="0.4064" layer="16"/>
<wire x1="51.816" y1="58.166" x2="51.816" y2="62.357" width="0.4064" layer="16"/>
<wire x1="51.816" y1="62.357" x2="51.816" y2="63.881" width="0.4064" layer="16"/>
<wire x1="51.816" y1="63.881" x2="51.308" y2="64.389" width="0.4064" layer="16"/>
<wire x1="51.308" y1="64.389" x2="52.959" y2="64.389" width="0.4064" layer="16"/>
<wire x1="52.959" y1="64.389" x2="53.594" y2="63.754" width="0.4064" layer="16"/>
<wire x1="53.594" y1="63.754" x2="53.594" y2="63.5" width="0.4064" layer="16"/>
<wire x1="53.594" y1="62.865" x2="53.34" y2="62.611" width="0.4064" layer="16"/>
<wire x1="53.34" y1="62.611" x2="52.07" y2="62.611" width="0.4064" layer="16"/>
<wire x1="52.07" y1="62.611" x2="52.07" y2="63.881" width="0.4064" layer="16"/>
<wire x1="52.07" y1="63.881" x2="52.832" y2="63.881" width="0.4064" layer="16"/>
<wire x1="52.832" y1="63.881" x2="53.34" y2="63.373" width="0.4064" layer="16"/>
<wire x1="53.34" y1="63.373" x2="53.34" y2="62.992" width="0.4064" layer="16"/>
<wire x1="53.34" y1="62.992" x2="52.578" y2="62.992" width="0.4064" layer="16"/>
<wire x1="52.578" y1="62.992" x2="52.451" y2="62.865" width="0.4064" layer="16"/>
<wire x1="52.451" y1="62.865" x2="52.451" y2="63.627" width="0.4064" layer="16"/>
<wire x1="52.451" y1="63.627" x2="52.832" y2="63.627" width="0.4064" layer="16"/>
<wire x1="52.832" y1="63.627" x2="53.213" y2="63.246" width="0.4064" layer="16"/>
<wire x1="53.213" y1="63.246" x2="52.324" y2="63.246" width="0.4064" layer="16"/>
<wire x1="52.324" y1="63.246" x2="51.435" y2="64.135" width="0.4064" layer="16"/>
<wire x1="51.435" y1="64.135" x2="52.705" y2="64.135" width="0.4064" layer="16"/>
<wire x1="52.705" y1="64.135" x2="52.959" y2="64.389" width="0.4064" layer="16"/>
<wire x1="52.959" y1="64.389" x2="50.673" y2="65.405" width="0.4064" layer="16"/>
<wire x1="50.673" y1="65.405" x2="45.085" y2="65.405" width="0.4064" layer="16"/>
<wire x1="45.085" y1="65.405" x2="32.258" y2="65.405" width="0.4064" layer="16"/>
<wire x1="32.258" y1="65.405" x2="31.242" y2="65.024" width="0.4064" layer="16"/>
<wire x1="31.242" y1="65.024" x2="31.242" y2="54.864" width="0.4064" layer="16"/>
<wire x1="31.242" y1="54.864" x2="32.766" y2="53.34" width="0.4064" layer="16"/>
<wire x1="32.766" y1="53.34" x2="33.02" y2="53.34" width="0.4064" layer="16"/>
<wire x1="33.02" y1="53.34" x2="33.02" y2="55.499" width="0.4064" layer="16"/>
<wire x1="33.02" y1="55.499" x2="33.02" y2="55.88" width="0.4064" layer="16"/>
<wire x1="33.02" y1="55.88" x2="32.893" y2="55.753" width="0.4064" layer="16"/>
<wire x1="32.893" y1="55.753" x2="32.893" y2="55.499" width="0.4064" layer="16"/>
<wire x1="32.893" y1="55.499" x2="33.655" y2="56.261" width="0.4064" layer="16"/>
<wire x1="33.655" y1="56.261" x2="36.83" y2="56.261" width="0.4064" layer="16"/>
<wire x1="36.83" y1="56.261" x2="38.1" y2="54.991" width="0.4064" layer="16"/>
<wire x1="38.1" y1="54.991" x2="38.227" y2="54.991" width="0.4064" layer="16"/>
<wire x1="38.227" y1="54.991" x2="38.1" y2="55.118" width="0.4064" layer="16"/>
<wire x1="38.1" y1="55.118" x2="38.1" y2="57.404" width="0.4064" layer="16"/>
<wire x1="38.1" y1="57.404" x2="37.465" y2="58.039" width="0.4064" layer="16"/>
<wire x1="37.465" y1="58.039" x2="34.29" y2="58.039" width="0.4064" layer="16"/>
<wire x1="34.29" y1="58.039" x2="32.639" y2="59.69" width="0.4064" layer="16"/>
<wire x1="37.592" y1="56.134" x2="37.719" y2="56.261" width="0.8128" layer="16"/>
<wire x1="37.719" y1="56.261" x2="37.719" y2="57.277" width="0.8128" layer="16"/>
<wire x1="37.719" y1="57.277" x2="37.211" y2="57.785" width="0.8128" layer="16"/>
<wire x1="37.211" y1="57.785" x2="33.02" y2="57.785" width="0.8128" layer="16"/>
<wire x1="33.02" y1="57.785" x2="33.528" y2="57.277" width="0.8128" layer="16"/>
<wire x1="33.528" y1="57.277" x2="37.211" y2="57.277" width="0.8128" layer="16"/>
<wire x1="37.211" y1="57.277" x2="37.211" y2="56.388" width="0.8128" layer="16"/>
<wire x1="37.211" y1="56.388" x2="36.703" y2="56.896" width="0.8128" layer="16"/>
<wire x1="36.703" y1="56.896" x2="33.401" y2="56.896" width="0.8128" layer="16"/>
<wire x1="33.401" y1="56.896" x2="33.274" y2="56.769" width="0.8128" layer="16"/>
<wire x1="33.274" y1="56.769" x2="33.274" y2="56.388" width="0.8128" layer="16"/>
<wire x1="33.274" y1="56.388" x2="32.385" y2="55.499" width="0.8128" layer="16"/>
<wire x1="32.385" y1="55.499" x2="32.385" y2="54.102" width="0.8128" layer="16"/>
<wire x1="32.385" y1="54.102" x2="31.75" y2="54.737" width="0.8128" layer="16"/>
<wire x1="31.75" y1="54.737" x2="31.75" y2="64.516" width="0.8128" layer="16"/>
<wire x1="31.75" y1="64.516" x2="32.004" y2="65.024" width="0.8128" layer="16"/>
<wire x1="32.004" y1="65.024" x2="32.385" y2="65.532" width="0.8128" layer="16"/>
<wire x1="32.385" y1="65.532" x2="32.258" y2="65.405" width="0.8128" layer="16"/>
<wire x1="32.258" y1="65.405" x2="32.258" y2="55.88" width="0.8128" layer="16"/>
<wire x1="32.258" y1="55.88" x2="33.401" y2="57.023" width="0.8128" layer="16"/>
<wire x1="33.401" y1="57.023" x2="33.401" y2="58.547" width="0.8128" layer="16"/>
<wire x1="33.401" y1="58.547" x2="33.782" y2="58.166" width="0.8128" layer="16"/>
<wire x1="37.5666" y1="55.6514" x2="37.6906" y2="55.6514" width="0.8128" layer="16"/>
<wire x1="37.6906" y1="55.6514" x2="38.351" y2="54.991" width="0.8128" layer="16"/>
<wire x1="46.355" y1="64.262" x2="46.101" y2="64.262" width="0.4064" layer="16"/>
<wire x1="46.101" y1="64.262" x2="45.466" y2="63.627" width="0.4064" layer="16"/>
<wire x1="43.18" y1="65.786" x2="45.085" y2="65.405" width="0.4064" layer="16"/>
<wire x1="45.085" y1="65.405" x2="45.466" y2="63.754" width="0.4064" layer="16"/>
<wire x1="33.147" y1="65.786" x2="32.639" y2="65.786" width="0.4064" layer="16"/>
<wire x1="32.639" y1="65.786" x2="32.512" y2="65.913" width="0.4064" layer="16"/>
<wire x1="32.512" y1="65.913" x2="32.258" y2="65.913" width="0.4064" layer="16"/>
<wire x1="32.258" y1="65.913" x2="32.131" y2="65.913" width="0.4064" layer="16"/>
<wire x1="31.242" y1="65.024" x2="32.131" y2="65.913" width="0.4064" layer="16"/>
<wire x1="32.131" y1="65.913" x2="32.131" y2="65.659" width="0.4064" layer="16"/>
<wire x1="32.131" y1="65.659" x2="31.369" y2="64.897" width="0.4064" layer="16"/>
<wire x1="31.369" y1="64.897" x2="31.369" y2="65.024" width="0.4064" layer="16"/>
<wire x1="31.369" y1="65.024" x2="32.258" y2="65.913" width="0.4064" layer="16"/>
<wire x1="32.512" y1="65.913" x2="51.943" y2="65.913" width="0.4064" layer="16"/>
<wire x1="51.943" y1="65.913" x2="53.594" y2="64.262" width="0.4064" layer="16"/>
<wire x1="53.594" y1="64.262" x2="53.594" y2="63.881" width="0.4064" layer="16"/>
<wire x1="53.594" y1="63.754" x2="53.594" y2="63.881" width="0.4064" layer="16"/>
<wire x1="53.594" y1="63.881" x2="51.816" y2="65.659" width="0.4064" layer="16"/>
<wire x1="51.816" y1="65.659" x2="51.562" y2="65.659" width="0.4064" layer="16"/>
<wire x1="51.181" y1="65.659" x2="51.562" y2="65.659" width="0.4064" layer="16"/>
<wire x1="51.562" y1="65.659" x2="52.197" y2="65.024" width="0.4064" layer="16"/>
<wire x1="52.197" y1="65.024" x2="51.689" y2="65.024" width="0.4064" layer="16"/>
<wire x1="51.689" y1="65.024" x2="51.435" y2="65.278" width="0.4064" layer="16"/>
<wire x1="51.435" y1="65.278" x2="51.435" y2="65.405" width="0.4064" layer="16"/>
<wire x1="51.435" y1="65.405" x2="51.308" y2="65.532" width="0.4064" layer="16"/>
<wire x1="51.308" y1="65.532" x2="51.435" y2="65.532" width="0.4064" layer="16"/>
<wire x1="51.435" y1="65.532" x2="51.689" y2="65.278" width="0.4064" layer="16"/>
<wire x1="31.369" y1="55.372" x2="31.369" y2="54.991" width="0.4064" layer="16"/>
<wire x1="31.369" y1="54.991" x2="31.242" y2="54.864" width="0.4064" layer="16"/>
<wire x1="31.242" y1="54.864" x2="31.242" y2="54.229" width="0.4064" layer="16"/>
<wire x1="31.242" y1="52.578" x2="31.242" y2="39.497" width="0.4064" layer="16"/>
<wire x1="31.242" y1="39.497" x2="32.004" y2="38.735" width="0.4064" layer="16"/>
<wire x1="32.004" y1="38.735" x2="54.229" y2="38.735" width="0.4064" layer="16"/>
<wire x1="54.229" y1="38.735" x2="54.864" y2="39.37" width="0.4064" layer="16"/>
<wire x1="54.864" y1="39.37" x2="54.864" y2="49.911" width="0.4064" layer="16"/>
<wire x1="54.864" y1="49.911" x2="53.975" y2="50.8" width="0.4064" layer="16"/>
<wire x1="53.975" y1="50.8" x2="53.086" y2="50.8" width="0.4064" layer="16"/>
<wire x1="53.086" y1="50.8" x2="53.086" y2="57.912" width="0.8128" layer="16"/>
<wire x1="53.086" y1="57.912" x2="52.832" y2="58.166" width="0.8128" layer="16"/>
<wire x1="33.02" y1="53.34" x2="32.004" y2="53.34" width="0.4064" layer="16"/>
<wire x1="32.004" y1="53.34" x2="31.242" y2="52.578" width="0.4064" layer="16"/>
<wire x1="31.242" y1="52.578" x2="31.242" y2="54.229" width="0.4064" layer="16"/>
<wire x1="31.242" y1="54.229" x2="31.623" y2="54.61" width="0.4064" layer="16"/>
<wire x1="31.623" y1="54.61" x2="31.623" y2="53.721" width="0.4064" layer="16"/>
<wire x1="31.623" y1="53.721" x2="31.623" y2="53.086" width="0.4064" layer="16"/>
<wire x1="31.623" y1="53.086" x2="31.496" y2="52.959" width="0.4064" layer="16"/>
<wire x1="31.496" y1="52.959" x2="31.623" y2="52.959" width="0.4064" layer="16"/>
<wire x1="31.623" y1="52.959" x2="32.258" y2="53.594" width="0.4064" layer="16"/>
<wire x1="32.258" y1="53.594" x2="31.75" y2="53.594" width="0.4064" layer="16"/>
<wire x1="31.75" y1="53.594" x2="31.623" y2="53.721" width="0.4064" layer="16"/>
<wire x1="31.623" y1="53.721" x2="31.75" y2="53.721" width="0.4064" layer="16"/>
<wire x1="32.004" y1="53.975" x2="31.75" y2="53.721" width="0.4064" layer="16"/>
<wire x1="37.592" y1="49.022" x2="37.592" y2="54.864" width="0.8128" layer="16"/>
<wire x1="37.592" y1="54.864" x2="37.592" y2="57.023" width="0.8128" layer="16"/>
<wire x1="37.592" y1="54.864" x2="37.592" y2="55.245" width="0.4064" layer="16"/>
<wire x1="37.592" y1="55.245" x2="36.957" y2="55.88" width="0.4064" layer="16"/>
<wire x1="36.957" y1="55.88" x2="33.401" y2="55.88" width="0.4064" layer="16"/>
<wire x1="33.401" y1="55.88" x2="33.02" y2="55.499" width="0.4064" layer="16"/>
</signal>
<signal name="VCC">
<contactref element="IC1" pad="16"/>
<contactref element="JP5" pad="6"/>
<contactref element="JP6" pad="1"/>
<contactref element="JP2" pad="3"/>
<wire x1="33.02" y1="40.64" x2="43.942" y2="40.64" width="0.4064" layer="16"/>
<wire x1="43.942" y1="40.64" x2="46.863" y2="40.64" width="0.4064" layer="16"/>
<wire x1="46.863" y1="40.64" x2="53.086" y2="40.64" width="0.4064" layer="16"/>
<wire x1="43.7134" y1="42.545" x2="43.7134" y2="40.8686" width="0.4064" layer="16"/>
<wire x1="43.7134" y1="40.8686" x2="43.942" y2="40.64" width="0.4064" layer="16"/>
<wire x1="43.7134" y1="42.545" x2="42.037" y2="42.545" width="0.4064" layer="16"/>
<wire x1="42.037" y1="42.545" x2="41.148" y2="43.434" width="0.4064" layer="16"/>
<wire x1="41.148" y1="43.434" x2="41.148" y2="61.468" width="0.4064" layer="16"/>
<wire x1="41.148" y1="61.468" x2="40.386" y2="62.23" width="0.4064" layer="16"/>
<contactref element="C1" pad="1"/>
<contactref element="C3" pad="1"/>
<contactref element="C2" pad="1"/>
<wire x1="46.482" y1="41.526" x2="46.482" y2="41.021" width="0.4064" layer="16"/>
<wire x1="46.482" y1="41.021" x2="46.863" y2="40.64" width="0.4064" layer="16"/>
<wire x1="48.895" y1="41.526" x2="46.482" y2="41.526" width="0.4064" layer="16"/>
<wire x1="41.151" y1="54.991" x2="41.151" y2="61.465" width="0.8128" layer="16"/>
<wire x1="41.151" y1="61.465" x2="40.386" y2="62.23" width="0.8128" layer="16"/>
<wire x1="53.086" y1="40.64" x2="52.578" y2="40.132" width="0.8128" layer="16"/>
<wire x1="52.578" y1="40.132" x2="34.036" y2="40.132" width="0.8128" layer="16"/>
<wire x1="34.036" y1="40.132" x2="33.528" y2="40.64" width="0.8128" layer="16"/>
<wire x1="33.528" y1="40.64" x2="33.02" y2="40.64" width="0.8128" layer="16"/>
<wire x1="33.02" y1="40.64" x2="33.528" y2="40.132" width="0.8128" layer="16"/>
<wire x1="33.528" y1="40.132" x2="34.036" y2="40.132" width="0.8128" layer="16"/>
<wire x1="41.148" y1="43.434" x2="41.148" y2="41.021" width="0.4064" layer="16"/>
<wire x1="41.148" y1="41.021" x2="40.64" y2="40.513" width="0.4064" layer="16"/>
<wire x1="40.64" y1="40.513" x2="41.021" y2="40.513" width="0.4064" layer="16"/>
<wire x1="41.021" y1="40.513" x2="41.402" y2="40.894" width="0.4064" layer="16"/>
<wire x1="41.402" y1="40.894" x2="41.402" y2="42.672" width="0.4064" layer="16"/>
<wire x1="41.402" y1="42.799" x2="41.402" y2="42.672" width="0.4064" layer="16"/>
<wire x1="41.402" y1="42.672" x2="41.91" y2="42.164" width="0.4064" layer="16"/>
<wire x1="41.91" y1="42.164" x2="42.926" y2="42.164" width="0.4064" layer="16"/>
<wire x1="42.926" y1="42.164" x2="43.053" y2="42.037" width="0.4064" layer="16"/>
<wire x1="43.053" y1="42.037" x2="43.053" y2="41.529" width="0.4064" layer="16"/>
<wire x1="43.053" y1="41.529" x2="42.799" y2="41.529" width="0.4064" layer="16"/>
<wire x1="42.799" y1="41.529" x2="42.164" y2="40.894" width="0.4064" layer="16"/>
<wire x1="42.164" y1="40.894" x2="41.656" y2="40.894" width="0.4064" layer="16"/>
<wire x1="41.656" y1="40.894" x2="41.656" y2="41.275" width="0.4064" layer="16"/>
<wire x1="41.656" y1="41.656" x2="41.656" y2="42.037" width="0.4064" layer="16"/>
<wire x1="41.656" y1="42.037" x2="41.783" y2="42.164" width="0.4064" layer="16"/>
<wire x1="41.783" y1="42.164" x2="42.418" y2="42.164" width="0.4064" layer="16"/>
<wire x1="42.418" y1="42.164" x2="42.799" y2="41.783" width="0.4064" layer="16"/>
<wire x1="42.799" y1="41.783" x2="42.799" y2="41.402" width="0.4064" layer="16"/>
<wire x1="42.799" y1="41.402" x2="42.926" y2="41.275" width="0.4064" layer="16"/>
<wire x1="42.926" y1="41.275" x2="42.418" y2="40.767" width="0.4064" layer="16"/>
<wire x1="42.418" y1="40.767" x2="42.164" y2="40.767" width="0.4064" layer="16"/>
<wire x1="42.164" y1="40.767" x2="41.656" y2="41.275" width="0.4064" layer="16"/>
<wire x1="41.656" y1="41.275" x2="41.656" y2="41.656" width="0.4064" layer="16"/>
<wire x1="41.656" y1="41.656" x2="41.91" y2="41.91" width="0.4064" layer="16"/>
<wire x1="41.91" y1="41.91" x2="42.291" y2="41.91" width="0.4064" layer="16"/>
<wire x1="42.291" y1="41.91" x2="42.418" y2="41.783" width="0.4064" layer="16"/>
<wire x1="42.418" y1="41.783" x2="42.418" y2="41.529" width="0.4064" layer="16"/>
<wire x1="42.418" y1="41.529" x2="42.164" y2="41.529" width="0.4064" layer="16"/>
<wire x1="42.164" y1="41.529" x2="42.037" y2="41.402" width="0.4064" layer="16"/>
<wire x1="42.037" y1="41.402" x2="42.037" y2="41.529" width="0.4064" layer="16"/>
<wire x1="42.037" y1="41.402" x2="42.037" y2="41.275" width="0.4064" layer="16"/>
<wire x1="42.037" y1="41.275" x2="42.164" y2="41.148" width="0.4064" layer="16"/>
</signal>
<signal name="N$1">
<contactref element="IC1" pad="9"/>
<contactref element="JP1" pad="1"/>
<wire x1="43.7134" y1="51.435" x2="43.7134" y2="57.1754" width="0.4064" layer="16"/>
<wire x1="43.7134" y1="57.1754" x2="45.339" y2="58.801" width="0.4064" layer="16"/>
<wire x1="45.339" y1="58.801" x2="45.593" y2="58.801" width="0.4064" layer="16"/>
<wire x1="45.593" y1="58.801" x2="48.387" y2="58.801" width="0.4064" layer="16"/>
<wire x1="48.387" y1="58.801" x2="49.276" y2="59.69" width="0.4064" layer="16"/>
<wire x1="49.276" y1="59.69" x2="49.276" y2="62.357" width="0.4064" layer="16"/>
<wire x1="43.942" y1="51.562" x2="43.942" y2="57.15" width="0.4064" layer="16"/>
<wire x1="43.942" y1="57.15" x2="45.593" y2="58.801" width="0.4064" layer="16"/>
</signal>
<signal name="X1">
<contactref element="IC1" pad="13"/>
</signal>
<signal name="Y0">
<contactref element="IC1" pad="2"/>
</signal>
<signal name="Y1">
<contactref element="IC1" pad="1"/>
</signal>
<signal name="Z1">
<contactref element="IC1" pad="3"/>
</signal>
<signal name="Y">
<contactref element="IC1" pad="15"/>
</signal>
<signal name="TXD">
<contactref element="JP2" pad="2"/>
<contactref element="JP2" pad="5"/>
<wire x1="35.306" y1="62.23" x2="35.306" y2="63.754" width="0.4064" layer="16"/>
<wire x1="35.306" y1="63.754" x2="35.814" y2="64.262" width="0.4064" layer="16"/>
<wire x1="35.814" y1="64.262" x2="42.164" y2="64.262" width="0.4064" layer="16"/>
<wire x1="42.164" y1="64.262" x2="42.926" y2="63.5" width="0.4064" layer="16"/>
<wire x1="42.926" y1="63.5" x2="42.926" y2="62.23" width="0.4064" layer="16"/>
<contactref element="IC1" pad="5"/>
<wire x1="37.5666" y1="47.625" x2="36.068" y2="47.625" width="0.4064" layer="16"/>
<wire x1="36.068" y1="47.625" x2="35.306" y2="48.387" width="0.4064" layer="16"/>
<wire x1="35.306" y1="48.387" x2="35.306" y2="53.848" width="0.4064" layer="16"/>
<via x="35.306" y="53.848" extent="1-16" drill="0.6" diameter="1.6764" shape="square"/>
<wire x1="35.306" y1="53.848" x2="35.306" y2="59.563" width="0.4064" layer="1"/>
<via x="35.306" y="59.563" extent="1-16" drill="0.6" diameter="1.6764" shape="square"/>
<wire x1="35.306" y1="59.563" x2="35.306" y2="62.23" width="0.4064" layer="16"/>
</signal>
<signal name="RX/TX">
<contactref element="JP2" pad="4"/>
<contactref element="JP6" pad="2"/>
<wire x1="33.02" y1="43.18" x2="34.163" y2="43.18" width="0.4064" layer="16"/>
<wire x1="34.163" y1="43.18" x2="35.941" y2="41.402" width="0.4064" layer="16"/>
<wire x1="35.941" y1="41.402" x2="39.497" y2="41.402" width="0.4064" layer="16"/>
<wire x1="39.497" y1="41.402" x2="39.751" y2="41.656" width="0.4064" layer="16"/>
<wire x1="39.751" y1="41.656" x2="39.751" y2="58.928" width="0.4064" layer="16"/>
<wire x1="39.751" y1="58.928" x2="37.846" y2="60.833" width="0.4064" layer="16"/>
<wire x1="37.846" y1="60.833" x2="37.846" y2="62.23" width="0.4064" layer="16"/>
</signal>
<signal name="RX">
<contactref element="JP6" pad="3"/>
<contactref element="IC1" pad="4"/>
<wire x1="33.02" y1="45.72" x2="34.925" y2="45.72" width="0.4064" layer="16"/>
<wire x1="34.925" y1="45.72" x2="35.56" y2="46.355" width="0.4064" layer="16"/>
<wire x1="35.56" y1="46.355" x2="37.5666" y2="46.355" width="0.4064" layer="16"/>
</signal>
<signal name="X0">
<contactref element="IC1" pad="12"/>
</signal>
<signal name="X">
<contactref element="IC1" pad="14"/>
</signal>
<signal name="N$3">
<wire x1="53.213" y1="50.8" x2="53.086" y2="50.673" width="0.4064" layer="16"/>
<wire x1="53.086" y1="50.673" x2="53.086" y2="53.467" width="0.4064" layer="16"/>
<wire x1="53.086" y1="53.467" x2="53.086" y2="55.626" width="0.4064" layer="16"/>
<wire x1="53.086" y1="55.626" x2="52.451" y2="56.261" width="0.4064" layer="16"/>
<wire x1="52.451" y1="56.261" x2="50.165" y2="56.261" width="0.4064" layer="16"/>
<wire x1="50.165" y1="56.261" x2="49.53" y2="55.626" width="0.4064" layer="16"/>
<wire x1="49.53" y1="55.626" x2="49.53" y2="45.72" width="0.4064" layer="16"/>
<wire x1="49.53" y1="45.72" x2="48.768" y2="44.958" width="0.4064" layer="16"/>
<wire x1="48.768" y1="44.958" x2="48.387" y2="44.958" width="0.4064" layer="16"/>
<wire x1="48.387" y1="44.958" x2="48.006" y2="44.577" width="0.4064" layer="16"/>
<wire x1="48.006" y1="44.577" x2="47.371" y2="44.577" width="0.4064" layer="16"/>
<wire x1="47.371" y1="44.577" x2="46.863" y2="45.085" width="0.4064" layer="16"/>
<wire x1="46.863" y1="45.085" x2="46.863" y2="55.372" width="1.016" layer="16"/>
<wire x1="46.863" y1="55.372" x2="48.26" y2="56.769" width="1.016" layer="16"/>
<wire x1="48.26" y1="56.769" x2="49.022" y2="56.769" width="1.016" layer="16"/>
<wire x1="49.022" y1="56.769" x2="49.149" y2="56.896" width="1.016" layer="16"/>
<wire x1="49.149" y1="56.896" x2="49.149" y2="46.228" width="1.016" layer="16"/>
<wire x1="49.149" y1="46.228" x2="48.26" y2="45.339" width="1.016" layer="16"/>
<wire x1="48.26" y1="45.339" x2="48.133" y2="45.339" width="1.016" layer="16"/>
<wire x1="48.133" y1="45.339" x2="47.752" y2="44.958" width="1.016" layer="16"/>
<wire x1="47.752" y1="44.958" x2="47.752" y2="55.499" width="1.016" layer="16"/>
<wire x1="47.752" y1="55.499" x2="48.387" y2="56.134" width="1.016" layer="16"/>
<wire x1="48.387" y1="56.134" x2="48.387" y2="46.482" width="1.016" layer="16"/>
<wire x1="48.387" y1="46.482" x2="48.26" y2="46.355" width="1.016" layer="16"/>
<wire x1="53.086" y1="53.467" x2="53.086" y2="55.88" width="1.016" layer="16"/>
<wire x1="53.086" y1="55.88" x2="52.451" y2="56.515" width="1.016" layer="16"/>
</signal>
<signal name="N$4">
<wire x1="49.276" y1="56.769" x2="49.657" y2="56.388" width="1.016" layer="16"/>
<wire x1="49.657" y1="56.388" x2="49.911" y2="56.642" width="1.016" layer="16"/>
<wire x1="49.911" y1="56.642" x2="52.832" y2="56.642" width="1.016" layer="16"/>
<wire x1="52.832" y1="56.642" x2="53.213" y2="56.261" width="1.016" layer="16"/>
<wire x1="53.213" y1="56.261" x2="53.213" y2="61.849" width="1.016" layer="16"/>
<wire x1="53.213" y1="61.849" x2="53.086" y2="61.976" width="1.016" layer="16"/>
<wire x1="53.086" y1="61.976" x2="52.451" y2="61.976" width="1.016" layer="16"/>
<wire x1="52.451" y1="61.976" x2="52.324" y2="61.849" width="1.016" layer="16"/>
<wire x1="52.324" y1="61.849" x2="52.324" y2="57.404" width="1.016" layer="16"/>
<wire x1="52.324" y1="57.404" x2="52.197" y2="57.277" width="1.016" layer="16"/>
<wire x1="52.197" y1="57.277" x2="51.562" y2="57.277" width="1.016" layer="16"/>
<wire x1="51.562" y1="57.277" x2="51.308" y2="57.023" width="1.016" layer="16"/>
<wire x1="51.308" y1="57.023" x2="51.562" y2="57.023" width="1.016" layer="16"/>
<wire x1="51.562" y1="57.023" x2="52.197" y2="57.658" width="1.016" layer="16"/>
</signal>
<signal name="N$6">
<wire x1="32.385" y1="64.389" x2="31.877" y2="65.024" width="0.8128" layer="16"/>
<wire x1="31.877" y1="65.024" x2="32.131" y2="65.532" width="0.8128" layer="16"/>
<wire x1="32.131" y1="65.532" x2="32.258" y2="65.659" width="0.8128" layer="16"/>
<wire x1="32.258" y1="65.659" x2="44.45" y2="65.659" width="0.8128" layer="16"/>
<wire x1="44.45" y1="65.659" x2="45.466" y2="64.643" width="0.8128" layer="16"/>
<wire x1="45.466" y1="64.643" x2="52.07" y2="64.643" width="0.8128" layer="16"/>
<wire x1="52.07" y1="64.643" x2="50.546" y2="65.151" width="0.8128" layer="16"/>
<wire x1="44.577" y1="65.151" x2="50.546" y2="65.151" width="0.8128" layer="16"/>
<wire x1="50.546" y1="65.151" x2="51.054" y2="65.151" width="0.8128" layer="16"/>
<wire x1="51.054" y1="65.151" x2="50.546" y2="65.659" width="0.8128" layer="16"/>
<wire x1="50.546" y1="65.659" x2="44.45" y2="65.659" width="0.8128" layer="16"/>
</signal>
<signal name="N$8">
<wire x1="43.688" y1="42.291" x2="43.561" y2="42.164" width="0.8128" layer="16"/>
<wire x1="43.561" y1="42.164" x2="43.561" y2="41.402" width="0.8128" layer="16"/>
<wire x1="43.561" y1="41.402" x2="43.561" y2="40.894" width="0.8128" layer="16"/>
<wire x1="43.561" y1="42.164" x2="43.561" y2="42.291" width="0.8128" layer="16"/>
<wire x1="43.561" y1="42.291" x2="43.688" y2="42.291" width="0.8128" layer="16"/>
<wire x1="43.688" y1="42.291" x2="44.704" y2="41.275" width="0.8128" layer="16"/>
<wire x1="44.704" y1="41.275" x2="48.133" y2="41.275" width="0.8128" layer="16"/>
<wire x1="48.133" y1="41.275" x2="47.752" y2="40.894" width="0.8128" layer="16"/>
<wire x1="47.752" y1="40.894" x2="43.942" y2="40.894" width="0.8128" layer="16"/>
<wire x1="43.942" y1="40.894" x2="44.069" y2="41.021" width="0.8128" layer="16"/>
<wire x1="44.069" y1="41.021" x2="44.069" y2="41.402" width="0.8128" layer="16"/>
<wire x1="44.069" y1="41.402" x2="44.196" y2="41.529" width="0.8128" layer="16"/>
<wire x1="44.196" y1="41.529" x2="44.196" y2="42.164" width="0.8128" layer="16"/>
<wire x1="43.561" y1="41.402" x2="42.418" y2="40.259" width="0.8128" layer="16"/>
<wire x1="42.418" y1="40.259" x2="42.291" y2="40.259" width="0.8128" layer="16"/>
</signal>
<signal name="N$2">
<wire x1="37.719" y1="45.085" x2="35.56" y2="45.085" width="0.4064" layer="16"/>
<wire x1="35.56" y1="45.085" x2="35.306" y2="45.339" width="0.4064" layer="16"/>
</signal>
</signals>
</board>
</drawing>
</eagle>
